<svg width="36" height="36" viewBox="0 0 36 36" fill="none" xmlns="http://www.w3.org/2000/svg">
<path d="M6.51133 22.5538C5.58793 23.4772 5.07945 24.7049 5.07945 26.0108C5.07945 27.3166 5.588 28.5443 6.51133 29.4677C7.46441 30.4207 8.71627 30.8973 9.96819 30.8973C11.2201 30.8973 12.472 30.4207 13.4251 29.4677C15.3312 27.5615 15.3312 24.4601 13.4251 22.554C11.5189 20.6477 8.41743 20.6477 6.51133 22.5538ZM11.9327 27.9753C10.8494 29.0586 9.08679 29.0585 8.00356 27.9753C7.47883 27.4506 7.18984 26.7529 7.18984 26.0108C7.18984 25.2687 7.47883 24.571 8.00356 24.0462C8.54518 23.5046 9.25668 23.2338 9.96812 23.2338C10.6796 23.2338 11.3911 23.5046 11.9327 24.0462C13.016 25.1294 13.016 26.892 11.9327 27.9753Z" fill="#4B9220"/>
<path d="M14.5486 14.5165C12.6425 16.4227 12.6425 19.5241 14.5486 21.4302C15.4719 22.3536 16.6996 22.8621 18.0055 22.8621C19.3113 22.8621 20.539 22.3536 21.4623 21.4302C22.3857 20.5069 22.8942 19.2792 22.8942 17.9733C22.8942 16.6675 22.3856 15.4398 21.4623 14.5164C19.5563 12.6103 16.4548 12.6104 14.5486 14.5165ZM19.9701 19.938C19.4453 20.4627 18.7477 20.7517 18.0055 20.7517C17.2634 20.7517 16.5657 20.4627 16.041 19.938C14.9577 18.8548 14.9577 17.0921 16.041 16.0089C16.5827 15.4672 17.294 15.1964 18.0055 15.1964C18.7169 15.1964 19.4285 15.4673 19.9701 16.0088C20.4948 16.5335 20.7838 17.2313 20.7838 17.9734C20.7839 18.7156 20.4949 19.4132 19.9701 19.938Z" fill="#4B9220"/>
<path d="M21.1541 9.93604C21.1541 11.2419 21.6627 12.4696 22.586 13.3929C23.5093 14.3163 24.737 14.8248 26.0429 14.8248C27.3487 14.8248 28.5765 14.3162 29.4998 13.3929C31.4059 11.4868 31.4059 8.38528 29.4998 6.47918C27.5936 4.57308 24.4921 4.57308 22.5861 6.47918C21.6626 7.40258 21.1541 8.63023 21.1541 9.93604ZM24.0783 7.97149C24.6199 7.42987 25.3314 7.1591 26.0429 7.1591C26.7543 7.1591 27.4658 7.42994 28.0074 7.97149C29.0906 9.05478 29.0907 10.8174 28.0074 11.9007C27.4827 12.4254 26.785 12.7144 26.0429 12.7144C25.3007 12.7144 24.603 12.4254 24.0783 11.9006C23.5536 11.3759 23.2646 10.6782 23.2646 9.93604C23.2646 9.19393 23.5536 8.49622 24.0783 7.97149Z" fill="#4B9220"/>
<path d="M25.5699 0.606616C23.246 0.722129 21.0597 1.69224 19.4133 3.33868C17.949 4.80291 17.0232 6.68509 16.7527 8.71549C14.7223 8.98598 12.8402 9.91177 11.3759 11.3761C9.91163 12.8403 8.98577 14.7225 8.71535 16.7529C6.68495 17.0234 4.80284 17.9492 3.33854 19.4134C1.68844 21.0634 0.718049 23.2546 0.605702 25.5835L0 36L10.4166 35.3942C12.7456 35.2818 14.9367 34.3114 16.5867 32.6614C18.051 31.1972 18.9768 29.315 19.2472 27.2846C21.2776 27.0141 23.1598 26.0883 24.6241 24.624C26.0883 23.1598 27.0142 21.2776 27.2846 19.2472C29.315 18.9767 31.1972 18.0509 32.6614 16.5867C34.3078 14.9403 35.2775 12.7626 35.3922 10.4546L36 0L25.5699 0.606616ZM33.285 10.3367L33.2845 10.3461C33.1967 12.1317 32.4455 13.818 31.1691 15.0945C29.861 16.4026 28.1224 17.156 26.2736 17.2157L25.285 17.2477L25.253 18.2363C25.1932 20.0851 24.4398 21.8237 23.1317 23.1318C21.8235 24.44 20.0849 25.1933 18.2362 25.2531L17.2476 25.2851L17.2156 26.2737C17.1558 28.1225 16.4024 29.8611 15.0944 31.1692C13.8149 32.4486 12.1159 33.2005 10.3103 33.2866L2.24454 33.7556L2.71292 25.7009L2.71349 25.6898C2.79952 23.8842 3.55148 22.1852 4.83084 20.9058C6.13897 19.5977 7.87757 18.8443 9.72633 18.7846L10.7149 18.7526L10.7469 17.7639C10.8067 15.9152 11.5601 14.1766 12.8682 12.8685C14.1763 11.5603 15.915 10.807 17.7637 10.7472L18.7523 10.7152L18.7843 9.72654C18.8441 7.87778 19.5974 6.13911 20.9056 4.83105C22.182 3.55465 23.8771 2.8029 25.6786 2.7144L33.7555 2.24468L33.285 10.3367Z" fill="#4B9220"/>
</svg>
