<svg width="130" height="50" viewBox="0 0 130 50" fill="none" xmlns="http://www.w3.org/2000/svg">
<path fill-rule="evenodd" clip-rule="evenodd" d="M28.02 26.1531H5.53524C2.73316 26.1531 0.440552 28.4458 0.440552 31.2479V50H22.9253C25.7274 50 28.02 47.7074 28.02 44.9053V26.1531Z" fill="#1B1918"/>
<path fill-rule="evenodd" clip-rule="evenodd" d="M57.0079 0.440552H34.5232C31.7211 0.440552 29.4285 2.73318 29.4285 5.53528V24.2874H51.9132C54.7153 24.2874 57.0079 21.9948 57.0079 19.1927V0.440552Z" fill="#1B1918"/>
<path fill-rule="evenodd" clip-rule="evenodd" d="M0.440552 0.440552H22.9253C25.7273 0.440552 28.02 2.73318 28.02 5.53528V24.2874H5.53524C2.73316 24.2874 0.440552 21.9948 0.440552 19.1927V0.440552Z" fill="#1B1918"/>
<path fill-rule="evenodd" clip-rule="evenodd" d="M27.5794 25.7126H5.09471C2.29261 25.7126 0 28.0052 0 30.8073V49.5595H22.4847C25.2868 49.5595 27.5794 47.2668 27.5794 44.4647V25.7126Z" fill="#4B9220"/>
<path fill-rule="evenodd" clip-rule="evenodd" d="M56.5673 0H34.0826C31.2805 0 28.9879 2.29263 28.9879 5.09473V23.8469H51.4726C54.2747 23.8469 56.5673 21.5542 56.5673 18.7521V0Z" fill="#4B9220"/>
<path fill-rule="evenodd" clip-rule="evenodd" d="M0 0H22.4847C25.2868 0 27.5794 2.29263 27.5794 5.09473V23.8469H5.09471C2.29261 23.8469 0 21.5542 0 18.7521V0Z" fill="#4B9220"/>
<path fill-rule="evenodd" clip-rule="evenodd" d="M56.3556 49.5595V39.922H64.4704V41.8292H59.6143V49.5595H56.3556ZM48.0799 46.6769L42.8866 39.922H46.4506L49.5673 44.1941L52.1302 39.922H55.0694L50.7387 47.055C50.1991 47.9532 49.6028 48.5962 48.9425 48.9815C48.2822 49.3668 47.3416 49.5595 46.124 49.5595H44.697V47.7244H45.84C46.3831 47.7244 46.8233 47.6642 47.1605 47.5414C47.5013 47.4186 47.8066 47.132 48.0799 46.6769ZM34.999 47.7389H37.5513C38.1512 47.7389 38.6162 47.6329 38.9428 47.4186C39.2658 47.2043 39.4291 46.9249 39.4291 46.5757C39.4291 45.8292 38.7121 45.4559 37.2815 45.4559H34.999V47.7389ZM31.7404 49.5595V39.922H41.2395V41.6559H34.999V43.7654H37.388C38.6304 43.7654 39.6137 43.8473 40.3378 44.0086C41.0585 44.17 41.6513 44.4806 42.1092 44.9358C42.5671 45.3909 42.7943 45.952 42.7943 46.6191C42.7943 47.5462 42.3754 48.2663 41.5413 48.784C40.7071 49.3018 39.5427 49.5595 38.0447 49.5595H31.7404Z" fill="#1B1918"/>
<path fill-rule="evenodd" clip-rule="evenodd" d="M120.685 25.3174H122.325C122.435 25.9339 122.989 26.2422 123.983 26.2422C125.002 26.2422 125.566 25.9339 125.669 25.3174H127.309C127.192 25.9508 126.837 26.4469 126.244 26.8057C125.651 27.1621 124.885 27.3403 123.951 27.3403C123.071 27.3403 122.325 27.1741 121.718 26.8442C121.115 26.5119 120.767 26.0038 120.685 25.3174ZM121.574 36.8622V37.8158H118.315V28.1783H121.574V32.277C121.574 32.9802 121.545 33.6906 121.489 34.4083C122.028 33.587 122.557 32.9248 123.075 32.4215L126.409 29.1753V28.1783H129.667V37.8158H126.409V33.4305C126.409 32.696 126.437 32.094 126.494 31.6268C126.043 32.3541 125.51 33.0163 124.896 33.616L121.574 36.8622ZM107.368 36.8622V37.8158H104.109V28.1783H107.368V32.277C107.368 32.9802 107.339 33.6906 107.282 34.4083C107.822 33.587 108.351 32.9248 108.869 32.4215L112.202 29.1753V28.1783H115.461V37.8158H112.202V33.4305C112.202 32.696 112.231 32.094 112.288 31.6268C111.837 32.3541 111.304 33.0163 110.69 33.616L107.368 36.8622ZM101.244 28.1783V37.8158H97.9856V33.8423H93.5554V37.8158H90.2968V28.1783H93.5554V31.9351H97.9856V28.1783H101.244ZM79.7184 35.9952H84.2941L82.2743 29.9989H81.7205L79.7184 35.9952ZM76.8325 35.9952L79.7504 28.1783H84.8763L87.8226 35.9952H89.1857V39.8387H87.0345L86.6937 37.8158H77.94L77.5992 39.8387H75.4481V35.9952H76.8325ZM74.3299 28.1783V37.8158H71.0073V28.1783H74.3299ZM69.375 28.1783L65.4987 32.6816L69.8862 37.8158H66.0134L63.1949 34.3553L60.3444 37.8158H57.1922L61.5868 32.696L57.6821 28.1783H61.5549L63.8729 31.1139L66.3009 28.1783H69.375ZM48.1835 34.0446H51.1866L49.6992 30.6684L48.1835 34.0446ZM51.9995 28.1783L56.4189 37.8158H52.8443L51.9675 35.8218H47.3883L46.4902 37.8158H43.5759L48.1231 28.1783H51.9995ZM31.7291 34.8827L34.6897 34.6081C34.9381 35.6196 35.8327 36.1253 37.3697 36.1253C38.9778 36.1253 39.78 35.6966 39.78 34.8369C39.78 34.0205 39.1091 33.6112 37.7637 33.6112H36.6278V32.1229H37.6537C38.2288 32.1229 38.676 32.0169 38.999 31.805C39.3221 31.5931 39.4818 31.3138 39.4818 30.9646C39.4818 30.6154 39.2795 30.3457 38.8784 30.1555C38.4737 29.9652 37.9554 29.8689 37.3165 29.8689C36.5675 29.8689 35.9889 29.9652 35.5878 30.1555C35.1866 30.3457 34.9204 30.6877 34.7961 31.1837L32.0912 30.8731C32.4923 28.9802 34.2743 28.0338 37.4372 28.0338C39.1268 28.0338 40.4509 28.2723 41.4094 28.7467C42.3678 29.2235 42.847 29.8424 42.847 30.6106C42.847 31.6124 42.0377 32.3035 40.4154 32.6792C42.3216 33.0404 43.273 33.7845 43.273 34.9067C43.273 35.8002 42.7618 36.5322 41.7395 37.103C40.7172 37.6737 39.3505 37.9603 37.6324 37.9603C35.6978 37.9603 34.2459 37.6737 33.2768 37.103C32.3078 36.5322 31.793 35.7905 31.7291 34.8827Z" fill="#1B1918"/>
<path fill-rule="evenodd" clip-rule="evenodd" d="M14.401 34.1021C15.365 33.1918 16.329 32.2817 17.2931 31.3715C17.2931 31.3715 20.5836 28.5886 21.3549 27.6735C21.5971 27.3952 21.8244 26.8057 21.9555 25.823C21.9604 25.7869 21.9676 25.75 21.9768 25.7126H23.0718C23.1249 26.0164 23.1282 26.393 22.9192 26.7686C22.8174 26.9513 22.5605 27.2166 22.2868 27.4709C22.4387 27.3828 22.5916 27.315 22.7144 27.3047C23.2814 27.2564 23.7621 27.3207 24.1055 27.6247C24.4782 27.9547 25.0807 27.958 25.2822 27.9715C25.613 27.9937 24.1678 28.6503 23.5032 28.405C23.1414 28.2716 22.3644 28.3493 22.2068 28.3976C21.7784 28.5816 20.9957 28.9627 20.413 29.5069C19.5697 30.2948 17.8823 31.7822 17.8823 31.7822C16.6937 32.955 15.5051 34.1277 14.3166 35.3005C13.3399 36.8935 12.363 38.4865 11.3863 40.0796C13.0499 39.4234 19.9705 30.5512 27.5794 33.2317V34.3191C21.8835 35.2434 10.6123 41.0945 10.5888 43.3101C9.15725 46.1008 7.64096 48.1737 6.41849 49.5595H4.82648C7.32418 47.6767 11.2404 37.2508 14.401 34.1021ZM27.5794 25.7126H24.9073C24.5641 25.9527 24.2965 26.1642 24.2965 26.1642C24.6618 26.1275 24.8339 26.0393 25.3753 26.3468C25.7448 26.5565 26.0263 26.625 26.6222 26.7602C26.7628 26.7922 27.1579 26.6528 27.5794 26.4646V25.7126ZM24.425 25.7126H23.189C23.1968 25.8064 23.2114 25.8986 23.2338 25.9989C23.3449 26.4933 23.218 26.632 23.0798 26.9412C23.0798 26.9412 24.0003 26.212 24.425 25.7126ZM24.7593 27.703C24.3388 27.5479 24.1438 27.462 23.8859 27.2645C23.5083 26.9753 23.3862 27.0271 23.1284 27.0207C23.1284 27.0207 24.0399 26.3603 24.4305 26.3273C24.9975 26.2793 25.5033 26.6909 25.6991 26.8387C25.8951 26.9868 26.1374 26.9874 26.339 27.0009C26.6698 27.023 25.4239 27.9482 24.7593 27.703Z" fill="#FFEC00"/>
<path fill-rule="evenodd" clip-rule="evenodd" d="M15.2833 27.7289C15.6199 27.0886 16.0132 26.4091 16.4337 25.7126H18.2135C17.8454 26.1319 17.5289 26.52 17.3279 26.812C16.6447 27.8036 15.171 29.6553 14.5595 30.4839C14.516 30.5427 14.467 30.6091 14.4145 30.6808L12.6036 33.3116C13.5822 30.1143 14.1381 29.8612 15.2833 27.7289Z" fill="#FFEC00"/>
<path fill-rule="evenodd" clip-rule="evenodd" d="M12.3249 25.7126C12.0525 26.4242 11.8493 26.9364 11.8493 26.9364C11.3098 28.5485 10.7702 30.1604 10.2307 31.7724C9.52326 33.4627 9.03553 35.244 8.69607 36.9016C8.61289 37.6116 8.56736 38.0256 8.55515 36.9168C7.78709 40.266 8.11869 46.0075 8.43134 49.5595H9.33965C9.36245 46.7897 8.35197 41.0361 10.3365 37.4403C12.2785 33.9217 18.825 28.1464 20.7716 26.5748C17.1203 27.2695 13.4031 30.2645 12.3538 31.8473C12.0976 32.2336 10.8431 34.0774 10.3641 34.7875C10.6774 31.6422 11.9208 28.6821 13.0378 25.7126H12.3249Z" fill="#FFEC00"/>
<path fill-rule="evenodd" clip-rule="evenodd" d="M11.8691 25.7126C10.6267 35.5805 5.1704 44.659 1.89046 49.5595H1.02789V49.2229C2.94486 46.3677 7.50934 40.2405 7.82993 36.4144C8.05126 33.7726 7.15001 29.2027 6.29615 25.7126H7.92479C8.80004 27.6493 9.25589 29.569 9.25323 30.6416C9.25219 31.1052 9.27352 33.3351 9.27825 34.1917C9.29502 34.1038 9.31015 34.0222 9.3236 33.9501C9.5123 32.9324 9.8631 30.5791 10.1214 29.3973C10.2963 28.5964 10.4319 26.996 10.4744 25.7126H11.8691Z" fill="#FFEC00"/>
<path fill-rule="evenodd" clip-rule="evenodd" d="M28.9879 19.9101V20.4592C29.1184 20.2773 29.3277 20.0649 29.6574 19.8046C30.1383 19.4249 30.5914 19.0451 31.0134 18.6733C32.0893 17.6976 30.9351 18.0967 30.5374 18.5177C30.0626 18.9234 29.5616 19.4727 29.3014 19.6728C29.2269 19.7301 29.1179 19.8115 28.9879 19.9101ZM28.9879 21.1281V22.6755C29.383 22.4351 30.2055 21.9084 30.44 21.5556C30.8932 20.8737 30.7972 20.1415 30.9999 19.6023C31.1129 19.3011 31.6261 19.0122 32.4818 18.3874C32.6597 18.2574 32.8391 18.1298 33.0194 18.0044C35.8631 15.8405 33.6258 16.9491 32.8754 17.6589C31.3636 18.6136 29.7464 19.6404 29.2348 20.5877C29.1125 20.8141 29.0351 20.9826 28.9879 21.1281ZM28.9879 22.9117V23.488C29.0811 23.5223 29.1872 23.5724 29.3134 23.644C29.4701 23.733 29.6114 23.7944 29.7675 23.8468H31.547C32.2451 23.5638 33.0486 23.0949 33.3547 22.9275L34.8402 22.1172C35.5538 21.7869 35.2857 21.4948 34.4591 21.9492L33.3777 22.5484C32.4584 23.0357 32.1054 22.9661 31.8247 22.8094C31.5439 22.6523 30.8682 22.1801 30.0652 22.3407C29.7994 22.3939 29.3662 22.655 28.9879 22.9117ZM28.9879 23.7267V23.8468H29.2966C29.2015 23.8032 29.0982 23.7616 28.9879 23.7267ZM32.2219 23.8468H32.9784C33.0823 23.7637 33.0017 23.7254 33.0017 23.7254C32.87 23.6243 32.5667 23.7041 32.2219 23.8468ZM39.9092 16.5896C39.7902 16.6507 37.1771 17.9938 36.9325 18.1357C36.6881 18.2779 36.3521 18.611 36.1294 18.9589C35.9067 19.3066 35.4728 19.6934 35.4728 19.6934C35.2579 19.4693 33.5834 19.3026 33.5834 19.3026C33.5834 19.3026 33.7111 18.9317 33.776 18.765C33.8409 18.5981 34.4553 18.1555 34.8257 17.9658C35.1962 17.7761 35.7995 17.8253 35.9324 17.8239C36.0655 17.8229 36.5971 17.8067 36.8084 17.665C37.5974 17.1794 44.8393 13.6038 39.9092 16.5896ZM37.6455 19.4491C37.1535 19.673 36.2607 20.2245 35.9873 20.3866C35.714 20.5486 34.6295 21.1263 34.0981 21.1756C33.5668 21.2252 32.8625 20.8064 32.8625 20.8064C32.8625 20.8064 33.3306 19.7079 33.4329 19.5383C33.8541 19.4519 34.265 19.5607 35.0595 19.7483C35.2149 19.7852 35.876 19.9843 36.2378 19.8213C36.5997 19.6583 37.58 19.1702 38.1007 18.9262C41.2618 17.5875 38.2337 19.204 37.6455 19.4491ZM33.4053 18.8567C33.2657 19.6025 32.8316 20.2559 32.3303 20.6654C31.8931 21.0218 30.5515 21.6606 30.5515 21.6606C30.7718 21.3671 30.8886 21.2623 30.9532 20.6432C30.9899 20.2928 31.1127 19.8222 31.1845 19.661C31.4336 19.1031 34.5464 17.3778 35.0219 17.101C38.2828 14.2039 38.3085 14.8992 36.3957 16.5724C35.8279 17.0691 33.4659 18.5332 33.4053 18.8567ZM32.317 22.595C31.7241 22.4479 31.6757 22.4349 31.3569 22.285C30.7935 22.0204 30.6436 22.0659 30.2783 22.1026C30.2783 22.1026 31.497 21.2059 32.0501 21.0952C32.853 20.9348 33.541 21.2038 33.8218 21.361C34.6475 21.8217 36.4457 19.6196 38.6606 19.7373C38.6606 19.7373 39.3524 19.7839 38.6492 19.9435C37.1227 20.29 32.9151 22.7435 32.317 22.595Z" fill="#FFEC00"/>
<path fill-rule="evenodd" clip-rule="evenodd" d="M28.9879 15.8408C29.7755 15.4204 30.4905 15.089 31.0157 14.9399C31.0157 14.9399 32.93 14.2414 34.0997 14.1458C35.2692 14.0503 36.2939 14.136 36.8572 14.3645C36.8572 14.3645 33.7036 14.7472 32.6061 15.2847C31.508 15.8227 29.9507 16.462 29.019 16.9252C29.0088 16.9303 28.9983 16.9356 28.9879 16.9409V15.8408ZM28.9879 6.43567V7.20642C29.2816 6.88674 29.5623 6.56999 29.8295 6.25858C30.9275 4.94013 29.6313 5.58285 29.2366 6.14212C29.1535 6.23594 29.0702 6.33483 28.9879 6.43567ZM28.9879 7.40308V10.5983C29.2906 10.3096 29.5677 10.0061 29.6755 9.77695C30.0885 8.89866 29.8411 8.03994 29.9831 7.36784C30.062 6.99255 30.6181 6.57397 31.5188 5.70548C31.7062 5.52482 31.8957 5.3468 32.0865 5.17117C35.0644 2.18071 32.6132 3.82563 31.8528 4.78027C30.8219 5.64413 29.7458 6.54904 28.9879 7.40308ZM28.9879 10.9724V12.5263C29.347 12.6384 29.6869 12.6695 30.275 12.7417C31.0053 12.8313 32.8587 11.3748 33.3829 10.9904L34.9969 9.80976C35.783 9.31287 35.4117 9.00346 34.5142 9.6647L33.341 10.5353C32.3396 11.2491 31.9083 11.2172 31.5466 11.071C31.185 10.9244 30.2973 10.4594 29.3743 10.7669C29.2632 10.804 29.1307 10.8771 28.9879 10.9724ZM28.9879 12.7616V14.4542C29.7942 14.1768 30.784 13.6094 31.1547 13.3377C31.9877 12.8172 31.8801 12.9619 32.7388 12.381C33.3426 12.0693 33.1098 11.9926 33.1098 11.9926C32.7812 11.8015 31.8484 12.4622 31.198 12.9117C30.5472 13.3611 29.7705 13.0838 29.4088 12.9371C29.3068 12.8958 29.1628 12.8291 28.9879 12.7616ZM40 2.48817C39.8701 2.57823 37.0159 4.55709 36.7517 4.76165C36.4877 4.96641 36.1501 5.41207 35.9495 5.85892C35.7488 6.30558 35.3048 6.8293 35.3048 6.8293C35.009 6.59339 32.9925 6.63696 32.9925 6.63696C32.9925 6.63696 33.0762 6.17642 33.1228 5.9683C33.1693 5.75997 33.8172 5.14355 34.222 4.86388C34.6268 4.58424 35.3512 4.55554 35.5086 4.53468C35.6663 4.51416 36.2939 4.41792 36.5186 4.21855C37.3658 3.52567 45.3024 -1.78378 40 2.48817ZM37.8371 6.22391C37.2944 6.56194 36.3362 7.34838 36.0416 7.58115C35.747 7.81383 34.566 8.65919 33.9448 8.79491C33.3237 8.93077 32.412 8.53352 32.412 8.53352C32.412 8.53352 32.7666 7.15655 32.857 6.93957C33.3408 6.77568 33.8481 6.84591 34.8246 6.95465C35.0156 6.97605 35.8361 7.11779 36.2354 6.87113C36.6349 6.62446 37.7085 5.90096 38.2816 5.53475C41.7864 3.48192 38.4901 5.84669 37.8371 6.22391ZM32.6999 6.13121C32.6705 7.04037 32.2749 7.88195 31.755 8.44246C31.3015 8.9306 29.8269 9.88604 29.8269 9.88604C30.0347 9.50434 30.154 9.36248 30.1176 8.61528C30.0972 8.19235 30.157 7.61358 30.2127 7.41116C30.4062 6.71014 34.0431 4.00483 34.5565 3.60609C35.0699 3.20756 35.472 2.91111 35.6879 2.7239C38.8277 0.00819421 39.0231 0.789916 36.068 3.12915C34.9149 4.042 35.3669 3.67215 34.2602 4.55481C33.2991 5.32122 32.7123 5.74593 32.6999 6.13121ZM32.0915 10.7443C31.3613 10.6547 31.3016 10.6463 30.8962 10.5138C30.1796 10.2799 30.0101 10.3557 29.5835 10.4523C29.5835 10.4523 30.8653 9.20726 31.5011 8.99535C32.4242 8.68798 33.2892 8.909 33.651 9.05573C34.7144 9.48553 36.4452 6.60062 39.0937 6.42053C39.0937 6.42053 39.9227 6.37605 39.1178 6.66792C37.3705 7.30169 32.8279 10.8347 32.0915 10.7443Z" fill="#FFEC00"/>
<path fill-rule="evenodd" clip-rule="evenodd" d="M27.5794 20.1806V20.7418C27.4459 20.8703 27.3119 20.9899 27.1914 21.09C26.6769 21.5172 26.7193 22.1965 26.7529 22.5165C26.7789 22.7638 26.8852 23.3031 26.7173 23.8469H25.0045C25.027 23.6636 25.0634 23.4575 25.1075 23.1871C25.2056 22.5839 26.4049 21.3758 26.8376 21.036C27.2694 20.6101 27.3695 20.4788 27.5794 20.1806ZM27.5794 21.1093V23.6601C27.4739 23.7266 27.3699 23.7896 27.273 23.8469H26.9207C27.0085 23.6747 27.0567 23.4821 27.0159 23.0823C26.9732 22.6594 27.036 22.3765 27.1404 21.7745C27.1721 21.5916 27.3437 21.3569 27.5794 21.1093ZM24.7239 23.8469H23.8586C24.3766 23.2862 25.0113 22.8559 24.9109 23.1041C24.8185 23.3324 24.6927 23.6024 24.7239 23.8469Z" fill="#FFEC00"/>
<path fill-rule="evenodd" clip-rule="evenodd" d="M17.5884 23.8468C18.7414 22.0111 19.9032 20.1909 20.5645 18.7682C20.7249 18.4368 20.7865 17.8036 20.6487 16.807C20.5323 15.9655 21.4858 14.479 21.4369 14.9084C21.4064 15.1715 21.2993 15.6902 21.4227 15.9286C21.5457 16.1669 22.0242 16.7566 21.8422 17.505C21.7926 17.7086 21.6142 18.0311 21.4164 18.3462C21.5406 18.2235 21.6711 18.1202 21.7879 18.0805C22.3268 17.8976 22.8119 17.8457 23.2286 18.0619C23.6804 18.2968 24.2675 18.1558 24.4674 18.1208C24.7953 18.0633 23.5663 19.0539 22.8531 18.9723C22.4649 18.9279 21.7295 19.1904 21.5893 19.2754C21.222 19.5584 20.5632 20.1199 20.1434 20.7937C19.5358 21.7693 18.2953 23.6336 18.2953 23.6336L18.1706 23.8468H17.5884ZM18.3596 23.8468C19.9203 22.2255 22.0071 20.1549 23.0179 19.5723C23.0179 19.5723 25.3188 17.9732 27.5794 16.6368V17.7784C26.585 18.4237 25.5203 19.189 25.0368 19.5436C24.2309 20.1347 21.7281 22.372 20.8318 23.0887C20.6099 23.2661 20.3163 23.5325 19.9911 23.8468H18.3596ZM27.5794 8.09949V11.7809C27.1753 12.394 25.7691 13.3948 25.7691 13.3948C25.9251 12.988 26.0809 12.821 25.893 12.0919C25.7651 11.594 25.788 11.2477 25.8019 10.5152C25.813 9.92926 26.9077 8.77527 27.5794 8.09949ZM27.5794 12.1934V12.3253C27.5256 12.3392 27.4692 12.3538 27.4078 12.3677C27.4078 12.3677 27.4722 12.3005 27.5794 12.1934ZM27.5794 12.5522V14.5396C27.1915 14.4884 26.9193 14.4345 26.5827 14.2958C25.8844 14.0078 25.6964 14.1376 25.2699 14.2343C25.2699 14.2343 26.6009 12.8452 27.2367 12.6333C27.3518 12.5949 27.4663 12.5686 27.5794 12.5522ZM27.5794 14.9274V15.7848C26.99 16.1789 26.3195 16.5554 26.0974 16.5325C25.366 16.4575 25.0196 16.4167 24.543 16.2201C23.8448 15.9319 23.6568 16.0619 23.2302 16.1586C23.2302 16.1586 24.5611 14.7697 25.1968 14.5578C26.12 14.25 27.0078 14.7153 27.3692 14.8612C27.4368 14.8886 27.5073 14.9104 27.5794 14.9274ZM23.4003 12.4224C23.3279 12.7262 23.2194 13.0917 23.3321 13.3893C23.4443 13.6865 23.7745 14.4546 23.454 15.3085C23.2336 15.8968 21.929 17.2606 21.929 17.2606C22.0364 16.8722 22.1617 16.6885 21.9397 16.1153C21.7882 15.7237 21.7594 15.4292 21.7385 14.7933C21.7053 13.788 23.5189 11.9237 23.4003 12.4224ZM25.4778 11.4556C25.576 11.8317 25.9223 12.7696 25.4957 13.6407C25.2015 14.2414 23.645 15.3744 23.645 15.3744C23.7969 14.9655 23.9508 14.7969 23.7556 14.0697C23.6226 13.5729 23.6421 13.2261 23.6486 12.4929C23.6548 11.7598 24.8568 10.1463 25.3079 9.67875C25.9074 8.89211 25.8601 8.86563 26.3206 7.98572C26.7166 7.22914 26.8809 7.71437 26.8809 7.71437C27.028 8.06405 26.2698 9.10809 25.7374 9.69192C25.2051 10.2755 25.3795 11.079 25.4778 11.4556ZM24.06 17.9257C23.5329 17.8017 23.286 17.7275 22.9441 17.5293C22.4434 17.2393 22.308 17.3188 22.0011 17.3484C22.0011 17.3484 22.9616 16.4294 23.4189 16.3335C24.0827 16.1943 24.7577 16.6117 25.0169 16.7596C25.2764 16.9077 25.5639 16.8734 25.8054 16.8603C26.2018 16.8388 24.893 18.1217 24.06 17.9257Z" fill="#FFEC00"/>
<path fill-rule="evenodd" clip-rule="evenodd" d="M13.7211 23.8208C13.9779 23.0662 14.4885 22.361 14.7795 21.9968C14.8957 21.8802 15.5442 21.4449 15.9261 21.3918C16.6279 21.2947 17.5926 20.0339 17.2905 20.1704C17.1065 20.2538 16.5735 20.5349 16.0895 20.4197C15.643 20.3136 15.189 20.4836 14.7117 20.7937C14.6083 20.8608 14.5055 20.9928 14.4126 21.1419C14.5344 20.7887 14.6358 20.4333 14.6393 20.2243C14.6521 19.4562 14.0656 19.0049 13.8962 18.805C13.7263 18.6051 13.7169 18.0774 13.689 17.817C13.6432 17.3891 13.0501 19.0605 13.3438 19.8446C13.6914 20.7734 13.769 21.4003 13.6869 21.76C13.596 22.188 13.3258 22.9952 13.0197 23.8469H13.7122L13.7211 23.8208Z" fill="#FFEC00"/>
<path fill-rule="evenodd" clip-rule="evenodd" d="M17.0536 10.215C16.7888 10.8124 16.2031 12.748 16.4358 13.4356C16.6686 14.1231 16.7636 14.454 17.0483 14.8711C17.4655 15.4817 17.3782 15.6941 17.3707 16.1302C17.3707 16.1302 18.4409 14.5179 18.5174 13.8522C18.6282 12.8861 18.0025 12.1323 17.7893 11.8157C17.5756 11.4988 17.1529 10.8097 17.455 10.0745C17.7572 9.33972 18.2061 8.28217 17.9562 8.00761C17.9562 8.00761 17.8358 7.79959 17.6568 8.45732C17.2699 9.42452 17.3876 9.28673 17.0536 10.215ZM23.4054 0.0841675C23.4568 0.0936417 23.5079 0.10406 23.5588 0.115087C23.4894 0.384199 23.3557 0.8265 23.135 1.49795C22.8975 2.13845 22.4164 3.34714 22.2591 3.79167C22.1017 4.23601 22.4027 4.99898 22.4616 5.17937C22.7621 6.10132 22.9314 6.5771 22.8707 7.08424C22.68 7.22211 21.4257 7.88452 21.4257 7.88452C21.4257 7.88452 20.8605 7.09205 20.8667 6.45827C20.8728 5.82432 21.4496 4.48344 21.6145 4.14386C21.7795 3.80426 22.3443 2.69301 22.5609 2.08848C22.676 1.73119 23.131 0.630863 23.4054 0.0841675ZM25.0677 0.708484C25.2339 0.806961 25.3941 0.91448 25.5476 1.03059C25.1944 1.91244 24.88 2.65747 24.7555 2.90354C24.6086 3.1676 24.6418 3.79853 24.6538 3.95623C24.6652 4.11373 24.7829 4.82302 24.5949 5.2803C24.4069 5.73754 23.9434 6.50851 23.7522 6.60188C23.5612 6.69513 23.1348 6.88286 23.1348 6.88286C23.1348 6.88286 22.7723 4.91694 22.4859 4.68458C22.4859 4.68458 22.901 4.13284 23.2907 3.83487C23.6806 3.53692 24.0418 3.10639 24.186 2.80302C24.2634 2.6396 24.6853 1.62939 25.0677 0.708484ZM26.4849 1.94878C26.6112 2.10888 26.7282 2.27669 26.8349 2.45131C26.6988 2.72524 26.5414 3.02901 26.3607 3.36354C26.2238 3.61631 26.0191 4.07487 25.7385 4.66495C25.4576 5.25512 23.583 9.40821 22.947 9.7581C22.7634 9.85894 22.2183 10.0508 21.8071 10.1288C21.0806 10.2663 20.968 10.4148 20.6422 10.7047C20.6422 10.7047 21.2662 9.05337 21.6451 8.50072C22.0804 7.86677 22.8111 7.28849 23.6802 7.04971C24.0486 6.94856 24.3397 6.28115 24.8847 5.1718C25.5124 3.89415 25.247 4.41814 25.8944 3.08862C26.1068 2.65238 26.3049 2.27252 26.4849 1.94878ZM23.0348 9.97077C22.4164 10.2639 21.5402 10.2225 20.7776 10.8262C20.2523 11.2422 19.4647 12.9229 19.4647 12.9229C19.8311 12.6867 20.0309 12.6571 20.7699 12.6328C21.1884 12.6188 21.4345 12.5543 22.0423 12.1576C23.1132 11.4585 24.1693 9.44282 25.1505 7.5589C25.9168 6.60062 27.0086 3.84269 24.7273 7.42258C24.5966 7.64827 24.4632 7.87328 24.3269 8.09681C23.6716 9.17127 23.3802 9.80738 23.0348 9.97077ZM21.4551 12.7336C21.0729 12.7292 20.0998 12.6196 19.353 13.2432C18.8386 13.6722 18.0786 15.4518 18.0786 15.4518C18.4389 15.2064 18.5685 15.0166 19.3079 15.0303C19.8128 15.0392 20.1415 14.9369 20.8438 14.754C21.5465 14.5711 22.7647 12.538 23.1187 11.9886C23.3301 11.6608 23.9309 11.0134 24.3643 10.4114C24.8234 9.89912 25.1822 8.49331 24.1333 9.86322C23.7347 10.3995 23.3298 10.9733 22.9276 11.5801C22.2449 12.6104 21.8368 12.738 21.4551 12.7336ZM19.4897 17.5244C19.2117 17.6649 18.8817 17.8547 18.5726 17.8142C18.2642 17.7741 17.4586 17.6315 16.7009 18.1398C16.1789 18.4896 15.1278 20.0704 15.1278 20.0704C15.4801 19.8764 15.6318 19.7124 16.228 19.7952C16.6353 19.8515 16.9247 19.8113 17.5409 19.6846C18.5152 19.4843 19.9459 17.2941 19.4897 17.5244ZM20.0036 15.2858C19.6219 15.2776 18.6496 15.1586 17.8968 15.7738C17.3776 16.1981 16.5992 17.9699 16.5992 17.9699C16.9624 17.7279 17.0938 17.5397 17.8328 17.5608C18.3377 17.5749 18.6676 17.4758 19.372 17.2999C20.0764 17.1244 21.3884 15.5854 21.748 15.0397C22.3849 14.2763 22.4199 14.3161 23.1745 13.666C23.8233 13.1069 23.3233 13.0597 23.3233 13.0597C22.9573 12.9979 22.1044 13.9747 21.6492 14.6262C21.1942 15.2774 20.3858 15.2941 20.0036 15.2858ZM19.362 8.70666C19.5947 9.39413 19.6147 9.45009 19.8236 9.81273C20.1924 10.4537 20.1534 10.6355 20.146 11.0716C20.146 11.0716 21.0874 9.54051 21.1638 8.87474C21.2746 7.90844 20.8884 7.12051 20.6746 6.80351C20.0477 5.87152 22.4774 3.52558 22.1196 0.915129C22.1196 0.915129 21.9961 0.100796 21.8766 0.948997C21.617 2.79026 19.1273 8.01333 19.362 8.70666ZM18.8661 7.511C18.6013 8.10835 17.571 10.2428 17.8038 10.9305C18.0364 11.618 18.1315 11.949 18.4164 12.3659C18.8334 12.9766 18.7461 13.189 18.7387 13.6249C18.7387 13.6249 19.8086 12.013 19.8851 11.3473C19.9961 10.381 19.3705 9.62755 19.1568 9.31067C18.9436 8.99374 18.8263 8.58275 19.3126 7.44637L19.9153 6.1071C20.3718 5.08376 19.9995 4.79517 19.6789 5.67254L18.8661 7.511ZM14.0603 18.1573C14.2854 18.6399 14.4063 18.8622 14.6656 19.148C15.0451 19.5665 14.9958 19.7162 15.0288 20.0208C15.0288 20.0208 15.7208 18.8766 15.7213 18.4109C15.7223 17.7349 15.1851 17.1768 14.9908 16.9596C14.7961 16.7421 14.7716 16.4553 14.7358 16.218C14.6769 15.8286 13.7045 17.3947 14.0603 18.1573ZM15.6051 17.2944C16.0225 17.905 15.9351 18.1174 15.9275 18.5535C15.9275 18.5535 16.9975 16.9415 17.074 16.2758C17.1852 15.3092 16.5593 14.5557 16.3463 14.239C16.1327 13.9222 16.0567 13.4896 16.0495 13.1498C16.0372 12.591 14.8513 15.413 14.9927 15.859C15.2115 16.5511 15.3203 16.8777 15.6051 17.2944Z" fill="#FFEC00"/>
<path fill-rule="evenodd" clip-rule="evenodd" d="M8.64328 8.28261C9.34801 9.21051 10.1135 11.1004 10.1135 11.1004C11.1454 13.1999 12.0853 20.1672 12.0853 20.1672C12.1514 21.3983 12.1352 22.6269 12.0508 23.8469H10.446C10.3785 22.4476 10.3253 19.6368 10.2269 18.7405C10.1261 17.8199 9.81133 15.2233 9.46843 14.0129C9.18391 13.0087 8.61209 11.4227 8.27125 10.2455C7.93028 9.06814 6.10008 6.45166 6.10008 6.45166C6.63582 6.71063 7.93849 7.3548 8.64328 8.28261ZM5.81893 23.8469C5.56179 22.8849 5.33309 22.0965 5.17303 21.5857C5.84028 22.2405 6.43022 23.0186 6.93959 23.8469H5.81893Z" fill="#FFEC00"/>
</svg>
