<svg width="88" height="41" viewBox="0 0 88 41" fill="none" xmlns="http://www.w3.org/2000/svg">
<path fill-rule="evenodd" clip-rule="evenodd" d="M25.977 16.628H12.427C11.6134 16.6304 10.8338 16.9545 10.2585 17.5297C9.68309 18.1049 9.35866 18.8844 9.35602 19.698V31H22.907C23.7204 30.9973 24.4998 30.6731 25.0749 30.0979C25.6501 29.5227 25.9744 28.7434 25.977 27.93V16.628ZM43.45 1.13198H29.9C29.0864 1.13435 28.3068 1.45853 27.7315 2.03372C27.1561 2.60892 26.8317 3.38841 26.829 4.20198V15.504H40.379C41.1926 15.5016 41.9722 15.1774 42.5476 14.6022C43.123 14.027 43.4474 13.2476 43.45 12.434V1.13098V1.13198ZM9.35602 1.13198H22.907C23.7204 1.13462 24.4998 1.45891 25.0749 2.03408C25.6501 2.60924 25.9744 3.38858 25.977 4.20198V15.504H12.427C11.6134 15.5016 10.8338 15.1774 10.2585 14.6022C9.68309 14.027 9.35866 13.2476 9.35602 12.434V1.13098V1.13198Z" fill="#1B1918"/>
<path fill-rule="evenodd" clip-rule="evenodd" d="M25.714 16.363H12.163C11.3496 16.3657 10.5702 16.69 9.99507 17.2651C9.41991 17.8403 9.09562 18.6196 9.09298 19.433V30.735H22.643C23.4567 30.7327 24.2365 30.4083 24.8119 29.8329C25.3873 29.2575 25.7116 28.4778 25.714 27.664V16.362V16.363ZM43.187 0.866028H29.636C28.8226 0.868664 28.0432 1.19296 27.4681 1.76812C26.8929 2.34329 26.5686 3.12262 26.566 3.93603V15.238H40.116C40.9294 15.2354 41.7087 14.9111 42.2839 14.3359C42.8591 13.7608 43.1833 12.9814 43.186 12.168V0.866028H43.187ZM9.09198 0.866028H22.643C23.4566 0.868401 24.2361 1.19258 24.8115 1.76777C25.3869 2.34297 25.7113 3.12245 25.714 3.93603V15.238H12.163C11.3496 15.2354 10.5702 14.9111 9.99507 14.3359C9.41991 13.7608 9.09562 12.9814 9.09298 12.168V0.866028H9.09198Z" fill="#4B9220"/>
<path fill-rule="evenodd" clip-rule="evenodd" d="M43.06 30.735V24.926H47.951V26.076H45.025V30.735H43.06V30.735ZM38.073 28.997L34.943 24.927H37.091L38.969 27.501L40.514 24.926H42.285L39.675 29.226C39.35 29.766 38.991 30.154 38.593 30.386C38.195 30.618 37.628 30.735 36.894 30.735H36.034V29.629H36.723C37.05 29.629 37.316 29.592 37.519 29.519C37.724 29.444 37.909 29.272 38.073 28.997ZM30.189 29.637H31.728C32.089 29.637 32.369 29.573 32.566 29.444C32.761 29.315 32.859 29.147 32.859 28.936C32.859 28.486 32.427 28.261 31.565 28.261H30.189V29.637ZM28.226 30.735V24.926H33.95V25.971H30.19V27.242H31.63C32.378 27.242 32.97 27.292 33.407 27.389C33.841 27.486 34.199 27.674 34.475 27.948C34.75 28.222 34.887 28.56 34.887 28.962C34.887 29.522 34.635 29.955 34.132 30.267C33.629 30.579 32.928 30.735 32.025 30.735H28.225H28.226ZM81.83 16.124H82.82C82.886 16.496 83.22 16.682 83.818 16.682C84.432 16.682 84.772 16.496 84.835 16.124H85.823C85.753 16.506 85.538 16.805 85.181 17.021C84.824 17.236 84.361 17.343 83.799 17.343C83.269 17.343 82.819 17.243 82.453 17.044C82.2803 16.9554 82.1328 16.8246 82.024 16.6638C81.9153 16.503 81.8489 16.3173 81.831 16.124H81.83ZM82.366 23.082V23.657H80.402V17.849H82.366V20.319C82.366 20.743 82.349 21.171 82.315 21.603C82.64 21.108 82.959 20.709 83.271 20.406L85.281 18.449V17.849H87.244V23.657H85.28V21.014C85.28 20.571 85.297 20.209 85.332 19.927C85.0609 20.3643 84.7375 20.767 84.369 21.126L82.366 23.082V23.082ZM73.805 23.082V23.657H71.84V17.849H73.804V20.319C73.804 20.743 73.786 21.171 73.752 21.603C74.078 21.108 74.396 20.709 74.709 20.406L76.717 18.449V17.849H78.681V23.657H76.717V21.014C76.717 20.571 76.734 20.209 76.769 19.927C76.4979 20.3643 76.1745 20.767 75.806 21.126L73.804 23.082H73.805ZM70.115 17.849V23.657H68.15V21.262H65.48V23.657H63.516V17.849H65.48V20.113H68.15V17.849H70.114H70.115ZM57.141 22.559H59.899L58.681 18.946H58.348L57.14 22.56L57.141 22.559ZM55.401 22.559L57.161 17.849H60.249L62.025 22.559H62.847V24.876H61.55L61.345 23.656H56.069L55.864 24.876H54.567V22.56H55.402L55.401 22.559ZM53.893 17.849V23.657H51.891V17.849H53.894H53.893ZM50.907 17.849L48.571 20.563L51.215 23.657H48.881L47.183 21.571L45.465 23.657H43.565L46.214 20.571L43.86 17.849H46.194L47.591 19.618L49.055 17.848H50.907V17.849ZM38.136 21.384H39.946L39.049 19.349L38.136 21.384ZM40.436 17.849L43.099 23.657H40.945L40.416 22.455H37.656L37.116 23.657H35.359L38.099 17.849H40.435H40.436ZM28.219 21.889L30.003 21.724C30.153 22.334 30.692 22.638 31.618 22.638C32.588 22.638 33.071 22.38 33.071 21.861C33.071 21.369 32.667 21.123 31.856 21.123H31.171V20.226H31.79C32.136 20.226 32.406 20.162 32.6 20.034C32.795 19.907 32.891 19.738 32.891 19.528C32.891 19.318 32.769 19.155 32.528 19.04C32.284 18.926 31.971 18.867 31.586 18.867C31.135 18.867 30.786 18.925 30.544 19.04C30.303 19.155 30.142 19.36 30.067 19.66L28.437 19.473C28.679 18.332 29.753 17.762 31.659 17.762C32.677 17.762 33.475 17.905 34.053 18.192C34.631 18.479 34.919 18.852 34.919 19.314C34.919 19.918 34.432 20.334 33.454 20.561C34.603 20.779 35.176 21.227 35.176 21.904C35.176 22.442 34.868 22.884 34.252 23.227C33.636 23.571 32.812 23.744 31.777 23.744C30.611 23.744 29.736 23.571 29.152 23.227C28.568 22.883 28.257 22.437 28.219 21.889V21.889Z" fill="#333333"/>
<path fill-rule="evenodd" clip-rule="evenodd" d="M17.769 21.419L19.512 19.773C19.512 19.773 21.495 18.096 21.96 17.544C22.106 17.376 22.243 17.021 22.322 16.429C22.3251 16.4068 22.3295 16.3847 22.335 16.363H22.995C23.04 16.5792 23.0074 16.8044 22.903 16.999C22.841 17.109 22.687 17.269 22.522 17.422C22.6 17.3715 22.6874 17.3375 22.779 17.322C23.121 17.292 23.411 17.332 23.618 17.515C23.842 17.714 24.205 17.715 24.327 17.724C24.527 17.737 23.655 18.133 23.255 17.985C23.037 17.905 22.568 17.952 22.473 17.981C22.215 18.091 21.743 18.321 21.393 18.649C20.8891 19.1113 20.3804 19.5683 19.867 20.02L17.718 22.14L15.952 25.021C16.955 24.626 21.126 19.279 25.712 20.894V21.549C22.279 22.107 15.486 25.633 15.472 26.969C14.609 28.65 13.695 29.899 12.958 30.734H11.998C13.505 29.6 15.865 23.317 17.77 21.42L17.769 21.419ZM25.711 16.363H24.101C23.894 16.507 23.733 16.635 23.733 16.635C23.953 16.612 24.057 16.559 24.383 16.745C24.606 16.871 24.775 16.912 25.135 16.994C25.219 17.014 25.457 16.929 25.711 16.816V16.363V16.363ZM23.811 16.363H23.065C23.07 16.419 23.079 16.475 23.092 16.535C23.159 16.833 23.082 16.917 23 17.103C23 17.103 23.554 16.663 23.81 16.363H23.811ZM24.011 17.563C23.758 17.469 23.641 17.417 23.485 17.298C23.258 17.124 23.185 17.155 23.029 17.151C23.029 17.151 23.579 16.753 23.814 16.733C24.155 16.704 24.46 16.953 24.578 17.041C24.696 17.131 24.842 17.131 24.964 17.139C25.164 17.152 24.412 17.709 24.012 17.562L24.011 17.563ZM18.305 17.578C18.508 17.192 18.745 16.782 18.998 16.363H20.071C19.8812 16.5739 19.7029 16.7949 19.537 17.025C19.125 17.623 18.237 18.739 17.868 19.238L17.781 19.357L16.69 20.942C17.28 19.015 17.615 18.862 18.305 17.578V17.578Z" fill="#FFEC00"/>
<path fill-rule="evenodd" clip-rule="evenodd" d="M16.518 16.363C16.354 16.791 16.231 17.1 16.231 17.1L15.256 20.015C14.829 21.033 14.536 22.107 14.331 23.105C14.281 23.534 14.253 23.783 14.246 23.115C13.783 25.134 13.983 28.594 14.171 30.735H14.719C14.732 29.065 14.123 25.598 15.319 23.43C16.489 21.31 20.435 17.83 21.609 16.882C19.408 17.301 17.168 19.106 16.535 20.06C16.381 20.293 15.625 21.404 15.336 21.832C15.525 19.936 16.274 18.152 16.947 16.362H16.517L16.518 16.363Z" fill="#FFEC00"/>
<path fill-rule="evenodd" clip-rule="evenodd" d="M16.245 16.363C15.497 22.31 12.208 27.78 10.232 30.735H9.71198V30.532C10.867 28.811 13.618 25.118 13.812 22.812C13.945 21.22 13.402 18.466 12.887 16.362H13.868C14.396 17.53 14.671 18.687 14.668 19.333C14.668 19.613 14.681 20.956 14.684 21.473C14.694 21.42 14.704 21.371 14.711 21.327C14.825 20.714 15.036 19.295 15.192 18.583C15.298 18.101 15.379 17.136 15.405 16.363H16.245V16.363ZM26.564 12.866V13.196C26.642 13.086 26.769 12.959 26.967 12.802C27.257 12.573 27.53 12.344 27.785 12.12C28.433 11.532 27.737 11.773 27.498 12.026C27.211 12.271 26.91 12.602 26.753 12.723L26.563 12.866H26.564ZM26.564 13.6V14.532C26.802 14.387 27.298 14.07 27.439 13.857C27.712 13.447 27.654 13.005 27.776 12.68C27.845 12.499 28.154 12.324 28.669 11.948C28.777 11.869 28.885 11.793 28.994 11.717C30.707 10.413 29.359 11.081 28.907 11.509C27.996 12.084 27.021 12.703 26.713 13.274C26.6534 13.378 26.6032 13.4871 26.563 13.6H26.564ZM26.564 14.675V15.022C26.62 15.042 26.684 15.072 26.76 15.116C26.854 15.169 26.94 15.206 27.034 15.238H28.106C28.526 15.068 29.011 14.785 29.196 14.684L30.091 14.196C30.521 13.996 30.359 13.82 29.861 14.094L29.209 14.456C28.655 14.749 28.443 14.707 28.273 14.613C28.104 14.518 27.697 14.233 27.213 14.33C27.053 14.362 26.792 14.52 26.563 14.675H26.564ZM26.564 15.165V15.238H26.75C26.6895 15.2101 26.6274 15.1861 26.564 15.166V15.165ZM28.513 15.238H28.969C29.032 15.188 28.983 15.165 28.983 15.165C28.903 15.104 28.721 15.152 28.513 15.238ZM33.146 10.864C33.074 10.901 31.499 11.711 31.352 11.796C31.205 11.882 31.002 12.083 30.868 12.292C30.734 12.502 30.472 12.735 30.472 12.735C30.342 12.6 29.333 12.499 29.333 12.499C29.333 12.499 29.41 12.276 29.45 12.175C29.489 12.075 29.859 11.808 30.082 11.694C30.305 11.579 30.669 11.609 30.749 11.608C30.829 11.608 31.149 11.598 31.277 11.512C31.753 11.22 36.117 9.06497 33.146 10.864V10.864ZM31.782 12.588C31.485 12.723 30.947 13.055 30.782 13.153C30.617 13.25 29.964 13.598 29.644 13.628C29.324 13.658 28.899 13.406 28.899 13.406C28.899 13.406 29.181 12.744 29.243 12.641C29.497 12.589 29.744 12.655 30.223 12.768C30.317 12.79 30.715 12.91 30.933 12.812C31.151 12.714 31.743 12.42 32.056 12.272C33.961 11.466 32.136 12.44 31.782 12.588V12.588ZM29.226 12.231C29.142 12.681 28.88 13.074 28.578 13.321C28.315 13.536 27.506 13.921 27.506 13.921C27.639 13.744 27.709 13.681 27.748 13.307C27.77 13.097 27.844 12.812 27.888 12.715C28.038 12.379 29.914 11.339 30.2 11.172C32.166 9.42597 32.181 9.84597 31.028 10.854C30.686 11.154 29.263 12.036 29.226 12.231V12.231ZM28.57 14.484C28.213 14.394 28.184 14.387 27.992 14.297C27.652 14.137 27.562 14.165 27.342 14.187C27.342 14.187 28.076 13.647 28.409 13.58C28.893 13.483 29.308 13.645 29.477 13.74C29.975 14.018 31.058 12.69 32.393 12.761C32.393 12.761 32.81 12.79 32.387 12.886C31.467 13.094 28.931 14.573 28.57 14.484V14.484ZM26.564 10.413C27.038 10.16 27.469 9.95997 27.786 9.86997C27.786 9.86997 28.94 9.44997 29.645 9.39097C30.349 9.33397 30.967 9.38597 31.307 9.52297C31.307 9.52297 29.406 9.75297 28.744 10.078C28.083 10.402 27.144 10.788 26.583 11.067L26.563 11.076V10.413H26.564ZM26.564 4.74497V5.20897C26.741 5.01697 26.91 4.82597 27.071 4.63797C27.733 3.84297 26.951 4.23097 26.714 4.56797C26.664 4.62397 26.614 4.68397 26.564 4.74497V4.74497ZM26.564 5.32797V7.25297C26.746 7.07897 26.914 6.89697 26.978 6.75797C27.228 6.22897 27.078 5.71197 27.164 5.30697C27.211 5.07997 27.546 4.82797 28.089 4.30497C28.202 4.19497 28.316 4.08797 28.431 3.98297C30.226 2.17997 28.749 3.17197 28.291 3.74697C27.669 4.26697 27.021 4.81297 26.564 5.32697V5.32797ZM26.564 7.47797V8.41497C26.78 8.48297 26.985 8.50197 27.34 8.54497C27.78 8.59897 28.897 7.72097 29.213 7.48997L30.185 6.77797C30.659 6.47797 30.435 6.29197 29.895 6.69097L29.187 7.21497C28.584 7.64497 28.324 7.62597 28.106 7.53797C27.888 7.44997 27.353 7.16997 26.796 7.35497C26.7137 7.38639 26.6358 7.42806 26.564 7.47897V7.47797ZM26.564 8.55797V9.57797C27.025 9.40701 27.4635 9.18069 27.87 8.90397C28.372 8.59097 28.307 8.67797 28.824 8.32797C29.188 8.13997 29.048 8.09397 29.048 8.09397C28.85 7.97897 28.288 8.37697 27.896 8.64797C27.504 8.91797 27.036 8.75097 26.817 8.66297C26.756 8.63797 26.669 8.59797 26.564 8.55697V8.55797ZM33.2 2.36497C33.121 2.41897 31.401 3.61197 31.242 3.73497C31.082 3.85797 30.879 4.12697 30.758 4.39597C30.638 4.66597 30.37 4.98097 30.37 4.98097C30.192 4.83897 28.976 4.86497 28.976 4.86497C28.976 4.86497 29.026 4.58697 29.055 4.46197C29.083 4.33597 29.473 3.96497 29.717 3.79597C29.961 3.62797 30.397 3.61097 30.493 3.59797C30.588 3.58597 30.966 3.52797 31.101 3.40797C31.612 2.98997 36.395 -0.21003 33.2 2.36497V2.36497ZM31.896 4.61597C31.569 4.81997 30.992 5.29397 30.814 5.43397C30.636 5.57397 29.924 6.08397 29.55 6.16597C29.176 6.24697 28.627 6.00797 28.627 6.00797C28.627 6.00797 28.84 5.17797 28.895 5.04797C29.186 4.94797 29.492 4.99097 30.08 5.05597C30.196 5.06897 30.69 5.15497 30.93 5.00597C31.171 4.85797 31.819 4.42097 32.164 4.20097C34.276 2.96397 32.29 4.38897 31.896 4.61597ZM28.8 4.55997C28.7796 5.07686 28.5778 5.57005 28.23 5.95297C27.957 6.24697 27.068 6.82297 27.068 6.82297C27.194 6.59297 27.266 6.50797 27.244 6.05697C27.2344 5.8139 27.2536 5.57056 27.301 5.33197C27.418 4.90897 29.609 3.27897 29.919 3.03797C30.229 2.79797 30.471 2.61997 30.601 2.50697C32.493 0.86997 32.611 1.34097 30.83 2.75097C30.135 3.30097 30.407 3.07797 29.74 3.61097C29.161 4.07197 28.807 4.32797 28.8 4.56097V4.55997ZM28.433 7.33997C27.993 7.28597 27.957 7.28097 27.713 7.20097C27.281 7.06097 27.179 7.10597 26.922 7.16397C26.922 7.16397 27.694 6.41397 28.077 6.28597C28.5007 6.15117 28.9576 6.16421 29.373 6.32297C30.014 6.58197 31.057 4.84297 32.653 4.73497C32.653 4.73497 33.153 4.70797 32.668 4.88397C31.615 5.26597 28.878 7.39497 28.433 7.33997V7.33997ZM25.713 13.028V13.367C25.633 13.444 25.551 13.517 25.479 13.577C25.169 13.834 25.194 14.243 25.215 14.437C25.23 14.585 25.295 14.91 25.193 15.238H24.161C24.174 15.128 24.196 15.003 24.223 14.841C24.282 14.477 25.005 13.749 25.266 13.544C25.526 13.287 25.586 13.208 25.713 13.028ZM25.713 13.588V15.126C25.649 15.166 25.586 15.204 25.528 15.238H25.316C25.369 15.134 25.398 15.018 25.373 14.778C25.347 14.522 25.385 14.352 25.448 13.989C25.468 13.879 25.571 13.737 25.713 13.589V13.588ZM23.992 15.238H23.47C23.782 14.9 24.165 14.641 24.104 14.79C24.049 14.928 23.973 15.09 23.992 15.238ZM19.695 15.238C20.39 14.132 21.09 13.035 21.489 12.178C21.585 11.978 21.622 11.596 21.539 10.995C21.469 10.488 22.044 9.59197 22.015 9.85097C21.996 10.01 21.931 10.322 22.006 10.466C22.08 10.61 22.368 10.965 22.259 11.416C22.229 11.539 22.121 11.733 22.002 11.923C22.0647 11.8546 22.141 11.8001 22.226 11.763C22.551 11.653 22.843 11.621 23.094 11.752C23.367 11.893 23.721 11.808 23.841 11.787C24.039 11.752 23.298 12.35 22.868 12.3C22.634 12.274 22.191 12.432 22.106 12.483C21.885 12.653 21.488 12.992 21.235 13.398C20.869 13.986 20.121 15.11 20.121 15.11L20.046 15.238H19.696H19.695ZM20.16 15.238C21.1 14.261 22.358 13.013 22.967 12.662C22.967 12.662 24.354 11.698 25.717 10.892V11.581C25.117 11.97 24.476 12.431 24.184 12.645C23.698 13.001 22.19 14.349 21.65 14.781C21.516 14.888 21.34 15.049 21.143 15.238H20.16V15.238ZM25.716 5.74797V7.96597C25.473 8.33597 24.626 8.93897 24.626 8.93897C24.719 8.69397 24.813 8.59297 24.7 8.15397C24.623 7.85397 24.637 7.64397 24.645 7.20397C24.652 6.84997 25.312 6.15397 25.717 5.74697L25.716 5.74797ZM25.716 8.21497V8.29497C25.6818 8.30384 25.6474 8.31218 25.613 8.31997L25.717 8.21497H25.716ZM25.716 8.43097V9.62897C25.51 9.60861 25.308 9.55911 25.116 9.48197C24.695 9.30797 24.582 9.38697 24.325 9.44497C24.325 9.44497 25.127 8.60797 25.51 8.47997C25.58 8.45697 25.648 8.43997 25.716 8.43097V8.43097ZM25.716 9.86297V10.379C25.361 10.617 24.957 10.844 24.823 10.829C24.383 10.785 24.173 10.76 23.886 10.642C23.466 10.468 23.352 10.546 23.096 10.605C23.096 10.605 23.897 9.76697 24.28 9.63997C24.837 9.45397 25.372 9.73497 25.59 9.82297C25.63 9.83897 25.673 9.85297 25.717 9.86297H25.716ZM23.198 8.35297C23.154 8.53597 23.088 8.75597 23.157 8.93597C23.224 9.11497 23.423 9.57797 23.23 10.092C23.097 10.447 22.311 11.269 22.311 11.269C22.376 11.035 22.451 10.924 22.318 10.579C22.226 10.342 22.208 10.165 22.196 9.78197C22.176 9.17597 23.269 8.05197 23.198 8.35197V8.35297ZM24.45 7.76997C24.509 7.99697 24.718 8.56197 24.46 9.08697C24.283 9.44897 23.345 10.132 23.345 10.132C23.437 9.88497 23.529 9.78397 23.412 9.34597C23.332 9.04597 23.343 8.83697 23.347 8.39597C23.351 7.95297 24.076 6.98097 24.347 6.69897C24.709 6.22497 24.68 6.20897 24.957 5.67897C25.197 5.22297 25.295 5.51497 25.295 5.51497C25.385 5.72597 24.927 6.35497 24.606 6.70697C24.286 7.05897 24.391 7.54297 24.45 7.76997V7.76997ZM23.595 11.67C23.278 11.595 23.129 11.55 22.923 11.43C22.621 11.256 22.54 11.304 22.354 11.322C22.354 11.322 22.934 10.768 23.209 10.71C23.609 10.626 24.016 10.878 24.172 10.967C24.328 11.056 24.502 11.035 24.647 11.027C24.887 11.015 24.097 11.787 23.595 11.67V11.67ZM17.364 15.222C17.518 14.768 17.826 14.342 18.002 14.123C18.072 14.053 18.462 13.791 18.692 13.759C19.116 13.699 19.697 12.94 19.515 13.022C19.404 13.072 19.083 13.242 18.791 13.172C18.521 13.109 18.248 13.212 17.961 13.398C17.8874 13.4551 17.8262 13.5265 17.781 13.608C17.854 13.395 17.915 13.181 17.917 13.055C17.925 12.592 17.571 12.32 17.469 12.199C17.367 12.079 17.361 11.761 17.344 11.604C17.317 11.346 16.959 12.354 17.136 12.826C17.346 13.386 17.392 13.764 17.343 13.98C17.288 14.238 17.125 14.725 16.941 15.238H17.358L17.364 15.222Z" fill="#FFEC00"/>
<path fill-rule="evenodd" clip-rule="evenodd" d="M19.372 7.02199C19.212 7.38199 18.859 8.54899 18.999 8.96299C19.139 9.37799 19.197 9.57699 19.369 9.82899C19.62 10.197 19.567 10.325 19.563 10.587C19.563 10.587 20.208 9.61599 20.254 9.21499C20.321 8.63199 19.944 8.17799 19.815 7.98699C19.686 7.79699 19.432 7.38099 19.614 6.93699C19.796 6.49499 20.066 5.85699 19.916 5.69199C19.916 5.69199 19.843 5.56699 19.736 5.96299C19.502 6.54599 19.573 6.46299 19.372 7.02299V7.02199ZM23.2 0.916992L23.292 0.934992C23.251 1.09799 23.17 1.36499 23.037 1.76899C22.894 2.15499 22.604 2.88299 22.509 3.15099C22.414 3.41899 22.596 3.87899 22.631 3.98799C22.812 4.54299 22.914 4.82999 22.878 5.13599C22.763 5.21899 22.007 5.61799 22.007 5.61799C22.007 5.61799 21.667 5.13999 21.67 4.75799C21.674 4.37599 22.021 3.56799 22.12 3.36299C22.22 3.15899 22.56 2.48899 22.69 2.12499C22.76 1.90899 23.035 1.24599 23.2 0.916992V0.916992ZM24.202 1.29299C24.302 1.35299 24.399 1.41699 24.491 1.48699C24.278 2.01899 24.089 2.46699 24.014 2.61599C23.925 2.77599 23.945 3.15599 23.952 3.24999C23.959 3.34499 24.03 3.77299 23.917 4.04799C23.803 4.32399 23.524 4.78799 23.409 4.84499C23.294 4.90099 23.037 5.01499 23.037 5.01499C23.037 5.01499 22.818 3.82899 22.646 3.68899C22.646 3.68899 22.896 3.35699 23.131 3.17699C23.366 2.99699 23.584 2.73799 23.671 2.55499C23.717 2.45699 23.971 1.84799 24.201 1.29299H24.202ZM25.056 2.04099C25.132 2.13699 25.202 2.23799 25.266 2.34299C25.185 2.50899 25.09 2.69199 24.981 2.89299C24.899 3.04599 24.775 3.32199 24.606 3.67799C24.436 4.03299 23.306 6.53599 22.924 6.74799C22.813 6.80799 22.484 6.92299 22.237 6.96999C21.799 7.05299 21.731 7.14299 21.535 7.31799C21.535 7.31799 21.911 6.32199 22.139 5.98899C22.4354 5.56533 22.8687 5.25668 23.366 5.11499C23.588 5.05399 23.763 4.65199 24.091 3.98299C24.47 3.21299 24.31 3.52899 24.7 2.72699C24.828 2.46499 24.947 2.23599 25.056 2.04099V2.04099ZM22.976 6.87499C22.604 7.05199 22.076 7.02699 21.616 7.39099C21.3 7.64099 20.825 8.65399 20.825 8.65399C21.045 8.51199 21.166 8.49399 21.612 8.47999C21.864 8.47099 22.012 8.43199 22.378 8.19299C23.024 7.77199 23.66 6.55699 24.252 5.42199C24.713 4.84399 25.372 3.18199 23.997 5.33899C23.917 5.47599 23.837 5.61099 23.755 5.74599C23.36 6.39299 23.185 6.77599 22.976 6.87599V6.87499ZM22.024 8.53999C21.794 8.53799 21.208 8.47199 20.758 8.84699C20.448 9.10599 19.99 10.179 19.99 10.179C20.207 10.031 20.285 9.91599 20.73 9.92399C21.035 9.92999 21.233 9.86799 21.656 9.75799C22.08 9.64799 22.814 8.42199 23.027 8.09099C23.155 7.89399 23.517 7.50399 23.777 7.14099C24.055 6.83199 24.271 5.98499 23.639 6.81099C23.399 7.13399 23.154 7.47899 22.912 7.84499C22.5 8.46599 22.254 8.54299 22.024 8.53999ZM20.84 11.428C20.672 11.512 20.474 11.627 20.287 11.602C20.101 11.578 19.616 11.492 19.159 11.799C18.845 12.009 18.211 12.962 18.211 12.962C18.423 12.845 18.515 12.746 18.874 12.796C19.12 12.83 19.294 12.806 19.665 12.73C20.253 12.609 21.115 11.289 20.84 11.428V11.428ZM21.15 10.078C20.92 10.074 20.334 10.002 19.88 10.373C19.567 10.628 19.098 11.696 19.098 11.696C19.317 11.55 19.396 11.436 19.841 11.45C20.146 11.458 20.345 11.398 20.769 11.292C21.194 11.187 21.984 10.259 22.201 9.92999C22.585 9.46999 22.606 9.49399 23.061 9.10199C23.451 8.76499 23.151 8.73699 23.151 8.73699C22.93 8.69999 22.416 9.28799 22.141 9.68099C21.867 10.073 21.38 10.084 21.15 10.079V10.078ZM20.763 6.11299C20.903 6.52799 20.915 6.56099 21.041 6.77999C21.264 7.16599 21.24 7.27599 21.235 7.53899C21.235 7.53899 21.803 6.61599 21.849 6.21499C21.8954 5.77724 21.7914 5.33674 21.554 4.96599C21.176 4.40499 22.641 2.99099 22.425 1.41799C22.425 1.41799 22.351 0.926992 22.278 1.43799C22.122 2.54799 20.621 5.69599 20.763 6.11299V6.11299ZM20.464 5.39299C20.304 5.75299 19.684 7.03899 19.824 7.45299C19.964 7.86799 20.021 8.06699 20.194 8.31899C20.444 8.68699 20.392 8.81499 20.387 9.07699C20.387 9.07699 21.032 8.10599 21.078 7.70499C21.145 7.12199 20.768 6.66799 20.639 6.47699C20.511 6.28699 20.44 6.03899 20.733 5.35399L21.097 4.54699C21.372 3.92999 21.147 3.75599 20.954 4.28499L20.464 5.39299V5.39299ZM17.568 11.809C17.703 12.099 17.776 12.234 17.933 12.406C18.161 12.658 18.132 12.749 18.151 12.932C18.151 12.932 18.569 12.242 18.569 11.962C18.569 11.555 18.246 11.218 18.129 11.087C18.011 10.957 17.996 10.783 17.975 10.64C17.939 10.406 17.353 11.35 17.568 11.81V11.809ZM18.498 11.289C18.75 11.657 18.698 11.785 18.693 12.048C18.693 12.048 19.338 11.076 19.384 10.675C19.451 10.093 19.074 9.63799 18.946 9.44799C18.816 9.25699 18.771 8.99599 18.766 8.79099C18.759 8.45399 18.045 10.155 18.13 10.424C18.262 10.841 18.327 11.038 18.499 11.289H18.498ZM14.302 5.85799C14.727 6.41699 15.188 7.55599 15.188 7.55599C15.81 8.82099 16.376 13.02 16.376 13.02C16.416 13.762 16.406 14.503 16.356 15.238H15.388C15.348 14.395 15.316 12.701 15.256 12.161C15.196 11.606 15.006 10.041 14.799 9.31099C14.628 8.70599 14.283 7.75099 14.078 7.04099C13.872 6.33099 12.769 4.75399 12.769 4.75399C13.092 4.90999 13.877 5.29899 14.302 5.85799V5.85799ZM12.6 15.238C12.4791 14.7811 12.3491 14.3267 12.21 13.875C12.613 14.27 12.968 14.739 13.275 15.238H12.6Z" fill="#FFEC00"/>
<path d="M4.99902 40.5C7.4843 40.5 9.49902 38.4853 9.49902 36C9.49902 33.5147 7.4843 31.5 4.99902 31.5C2.51374 31.5 0.499023 33.5147 0.499023 36C0.499023 38.4853 2.51374 40.5 4.99902 40.5Z" fill="#4B9220" stroke="white"/>
</svg>
