<svg width="91" height="40" viewBox="0 0 91 40" fill="none" xmlns="http://www.w3.org/2000/svg">
<path fill-rule="evenodd" clip-rule="evenodd" d="M16.885 15.7619H3.33389C1.64514 15.7619 0.263428 17.1437 0.263428 18.8324V30.134H13.8145C15.5033 30.134 16.885 28.7522 16.885 27.0635V15.7619Z" fill="#1B1918"/>
<path fill-rule="evenodd" clip-rule="evenodd" d="M34.3579 0.265503H20.8068C19.118 0.265503 17.7363 1.64722 17.7363 3.33599V14.6375H31.2874C32.9762 14.6375 34.3579 13.2558 34.3579 11.567V0.265503Z" fill="#1B1918"/>
<path fill-rule="evenodd" clip-rule="evenodd" d="M0.263428 0.265503H13.8145C15.5033 0.265503 16.885 1.64722 16.885 3.33599V14.6375H3.33389C1.64514 14.6375 0.263428 13.2558 0.263428 11.567V0.265503Z" fill="#1B1918"/>
<path fill-rule="evenodd" clip-rule="evenodd" d="M16.6215 15.4964H3.07048C1.38171 15.4964 0 16.8782 0 18.5669V29.8684H13.5511C15.2398 29.8684 16.6215 28.4867 16.6215 26.798V15.4964Z" fill="#4B9220"/>
<path fill-rule="evenodd" clip-rule="evenodd" d="M34.0942 0H20.5431C18.8544 0 17.4727 1.38172 17.4727 3.07049V14.372H31.0237C32.7125 14.372 34.0942 12.9903 34.0942 11.3015V0Z" fill="#4B9220"/>
<path fill-rule="evenodd" clip-rule="evenodd" d="M0 0H13.5511C15.2398 0 16.6215 1.38172 16.6215 3.07049V14.372H3.07048C1.38171 14.372 0 12.9903 0 11.3015V0Z" fill="#4B9220"/>
<path d="M26.18 19V26H24.9V20.1H21.27V26H19.99V19H26.18ZM28.0138 20.66H29.2638V26H28.0138V20.66ZM28.6438 19.78C28.4172 19.78 28.2272 19.71 28.0738 19.57C27.9205 19.4233 27.8438 19.2433 27.8438 19.03C27.8438 18.8167 27.9205 18.64 28.0738 18.5C28.2272 18.3533 28.4172 18.28 28.6438 18.28C28.8705 18.28 29.0605 18.35 29.2138 18.49C29.3672 18.6233 29.4438 18.7933 29.4438 19C29.4438 19.22 29.3672 19.4067 29.2138 19.56C29.0672 19.7067 28.8772 19.78 28.6438 19.78ZM36.6533 24.94V27.19H35.4833V26H31.3633V27.19H30.2033V24.94H30.4533C30.7933 24.9267 31.0233 24.71 31.1433 24.29C31.2699 23.8633 31.3533 23.2633 31.3933 22.49L31.4633 20.66H35.8633V24.94H36.6533ZM32.5333 22.58C32.5066 23.1933 32.4566 23.6933 32.3833 24.08C32.3099 24.4667 32.1766 24.7533 31.9833 24.94H34.6133V21.72H32.5633L32.5333 22.58ZM40.7297 20.6C41.2497 20.6 41.713 20.7133 42.1197 20.94C42.533 21.1667 42.8564 21.4867 43.0897 21.9C43.323 22.3133 43.4397 22.79 43.4397 23.33C43.4397 23.87 43.323 24.35 43.0897 24.77C42.8564 25.1833 42.533 25.5033 42.1197 25.73C41.713 25.9567 41.2497 26.07 40.7297 26.07C40.0097 26.07 39.4397 25.83 39.0197 25.35V27.94H37.7697V20.66H38.9597V21.36C39.1664 21.1067 39.4197 20.9167 39.7197 20.79C40.0264 20.6633 40.363 20.6 40.7297 20.6ZM40.5897 25C41.0497 25 41.4264 24.8467 41.7197 24.54C42.0197 24.2333 42.1697 23.83 42.1697 23.33C42.1697 22.83 42.0197 22.4267 41.7197 22.12C41.4264 21.8133 41.0497 21.66 40.5897 21.66C40.2897 21.66 40.0197 21.73 39.7797 21.87C39.5397 22.0033 39.3497 22.1967 39.2097 22.45C39.0697 22.7033 38.9997 22.9967 38.9997 23.33C38.9997 23.6633 39.0697 23.9567 39.2097 24.21C39.3497 24.4633 39.5397 24.66 39.7797 24.8C40.0197 24.9333 40.2897 25 40.5897 25ZM47.0638 26.07C46.5238 26.07 46.0371 25.9533 45.6038 25.72C45.1704 25.4867 44.8304 25.1633 44.5838 24.75C44.3438 24.33 44.2238 23.8567 44.2238 23.33C44.2238 22.8033 44.3438 22.3333 44.5838 21.92C44.8304 21.5067 45.1704 21.1833 45.6038 20.95C46.0371 20.7167 46.5238 20.6 47.0638 20.6C47.6104 20.6 48.1004 20.7167 48.5338 20.95C48.9671 21.1833 49.3038 21.5067 49.5438 21.92C49.7904 22.3333 49.9138 22.8033 49.9138 23.33C49.9138 23.8567 49.7904 24.33 49.5438 24.75C49.3038 25.1633 48.9671 25.4867 48.5338 25.72C48.1004 25.9533 47.6104 26.07 47.0638 26.07ZM47.0638 25C47.5238 25 47.9038 24.8467 48.2038 24.54C48.5038 24.2333 48.6538 23.83 48.6538 23.33C48.6538 22.83 48.5038 22.4267 48.2038 22.12C47.9038 21.8133 47.5238 21.66 47.0638 21.66C46.6038 21.66 46.2238 21.8133 45.9238 22.12C45.6304 22.4267 45.4838 22.83 45.4838 23.33C45.4838 23.83 45.6304 24.2333 45.9238 24.54C46.2238 24.8467 46.6038 25 47.0638 25ZM54.2605 23.22C54.5938 23.3133 54.8505 23.4667 55.0305 23.68C55.2171 23.8867 55.3105 24.1367 55.3105 24.43C55.3105 24.7567 55.2005 25.0467 54.9805 25.3C54.7605 25.5467 54.4571 25.74 54.0705 25.88C53.6838 26.02 53.2438 26.09 52.7505 26.09C52.3371 26.09 51.9338 26.0433 51.5405 25.95C51.1471 25.85 50.7905 25.71 50.4705 25.53L50.8305 24.6C51.0905 24.7467 51.3838 24.86 51.7105 24.94C52.0371 25.02 52.3638 25.06 52.6905 25.06C53.1105 25.06 53.4371 24.9967 53.6705 24.87C53.9105 24.7367 54.0305 24.5567 54.0305 24.33C54.0305 24.1233 53.9371 23.9633 53.7505 23.85C53.5705 23.7367 53.3138 23.68 52.9805 23.68H51.9405V22.84H52.8805C53.1938 22.84 53.4371 22.7867 53.6105 22.68C53.7905 22.5733 53.8805 22.4233 53.8805 22.23C53.8805 22.0367 53.7738 21.8833 53.5605 21.77C53.3471 21.6567 53.0538 21.6 52.6805 21.6C52.1471 21.6 51.5838 21.73 50.9905 21.99L50.6705 21.07C51.3705 20.7433 52.0771 20.58 52.7905 20.58C53.2438 20.58 53.6505 20.6433 54.0105 20.77C54.3705 20.89 54.6505 21.0633 54.8505 21.29C55.0571 21.51 55.1605 21.7633 55.1605 22.05C55.1605 22.31 55.0805 22.5433 54.9205 22.75C54.7605 22.95 54.5405 23.1067 54.2605 23.22ZM62.3076 24.94V27.19H61.1376V26H57.0176V27.19H55.8576V24.94H56.1076C56.4476 24.9267 56.6776 24.71 56.7976 24.29C56.9242 23.8633 57.0076 23.2633 57.0476 22.49L57.1176 20.66H61.5176V24.94H62.3076ZM58.1876 22.58C58.1609 23.1933 58.1109 23.6933 58.0376 24.08C57.9642 24.4667 57.8309 24.7533 57.6376 24.94H60.2676V21.72H58.2176L58.1876 22.58ZM63.424 20.66H64.674V26H63.424V20.66ZM64.054 19.78C63.8273 19.78 63.6373 19.71 63.484 19.57C63.3307 19.4233 63.254 19.2433 63.254 19.03C63.254 18.8167 63.3307 18.64 63.484 18.5C63.6373 18.3533 63.8273 18.28 64.054 18.28C64.2807 18.28 64.4707 18.35 64.624 18.49C64.7773 18.6233 64.854 18.7933 64.854 19C64.854 19.22 64.7773 19.4067 64.624 19.56C64.4773 19.7067 64.2873 19.78 64.054 19.78ZM71.2034 20.66V26H69.9534V21.72H67.9534L67.9034 22.78C67.8701 23.4867 67.8034 24.08 67.7034 24.56C67.6101 25.0333 67.4468 25.41 67.2134 25.69C66.9868 25.9633 66.6734 26.1 66.2734 26.1C66.0868 26.1 65.8568 26.0633 65.5834 25.99L65.6434 24.94C65.7368 24.96 65.8168 24.97 65.8834 24.97C66.1368 24.97 66.3268 24.87 66.4534 24.67C66.5801 24.4633 66.6601 24.22 66.6934 23.94C66.7334 23.6533 66.7668 23.2467 66.7934 22.72L66.8834 20.66H71.2034ZM22.27 38.07C21.7167 38.07 21.22 37.9533 20.78 37.72C20.34 37.4867 19.9967 37.1633 19.75 36.75C19.5033 36.33 19.38 35.8567 19.38 35.33C19.38 34.8033 19.5033 34.3333 19.75 33.92C19.9967 33.5067 20.3367 33.1833 20.77 32.95C21.21 32.7167 21.71 32.6 22.27 32.6C22.7967 32.6 23.2567 32.7067 23.65 32.92C24.05 33.1333 24.35 33.44 24.55 33.84L23.59 34.4C23.4367 34.1533 23.2433 33.97 23.01 33.85C22.7833 33.7233 22.5333 33.66 22.26 33.66C21.7933 33.66 21.4067 33.8133 21.1 34.12C20.7933 34.42 20.64 34.8233 20.64 35.33C20.64 35.8367 20.79 36.2433 21.09 36.55C21.3967 36.85 21.7867 37 22.26 37C22.5333 37 22.7833 36.94 23.01 36.82C23.2433 36.6933 23.4367 36.5067 23.59 36.26L24.55 36.82C24.3433 37.22 24.04 37.53 23.64 37.75C23.2467 37.9633 22.79 38.07 22.27 38.07ZM26.2259 38.07C25.9992 38.07 25.8059 37.9933 25.6459 37.84C25.4859 37.68 25.4059 37.48 25.4059 37.24C25.4059 36.9933 25.4825 36.7933 25.6359 36.64C25.7959 36.4867 25.9925 36.41 26.2259 36.41C26.4592 36.41 26.6525 36.4867 26.8059 36.64C26.9659 36.7933 27.0459 36.9933 27.0459 37.24C27.0459 37.48 26.9659 37.68 26.8059 37.84C26.6459 37.9933 26.4525 38.07 26.2259 38.07ZM37.4273 31V38H28.4373V31H29.7173V36.9H32.2973V31H33.5773V36.9H36.1473V31H37.4273ZM39.2541 32.66H40.5041V36.18L43.4541 32.66H44.5941V38H43.3441V34.48L40.4041 38H39.2541V32.66ZM51.5255 38V34.46L49.7255 37.44H49.1855L47.4155 34.45V38H46.2755V32.66H47.5855L49.4855 36L51.4755 32.66H52.6455L52.6555 38H51.5255ZM56.5522 35.86H55.5822V38H54.3322V32.66H55.5822V34.82H56.5822L58.1622 32.66H59.5022L57.5622 35.23L59.6322 38H58.1622L56.5522 35.86ZM60.5138 32.66H61.7638V38H60.5138V32.66ZM61.1438 31.78C60.9172 31.78 60.7272 31.71 60.5738 31.57C60.4205 31.4233 60.3438 31.2433 60.3438 31.03C60.3438 30.8167 60.4205 30.64 60.5738 30.5C60.7272 30.3533 60.9172 30.28 61.1438 30.28C61.3705 30.28 61.5605 30.35 61.7138 30.49C61.8672 30.6233 61.9438 30.7933 61.9438 31C61.9438 31.22 61.8672 31.4067 61.7138 31.56C61.5672 31.7067 61.3772 31.78 61.1438 31.78ZM67.3233 35.22C67.9833 35.42 68.3133 35.8467 68.3133 36.5C68.3133 36.98 68.1333 37.35 67.7733 37.61C67.4133 37.87 66.8799 38 66.1733 38H63.4533V32.66H66.0633C66.7166 32.66 67.2266 32.78 67.5933 33.02C67.9599 33.26 68.1433 33.6 68.1433 34.04C68.1433 34.3133 68.0699 34.55 67.9233 34.75C67.7833 34.95 67.5833 35.1067 67.3233 35.22ZM64.6433 34.89H65.9533C66.5999 34.89 66.9233 34.6667 66.9233 34.22C66.9233 33.7867 66.5999 33.57 65.9533 33.57H64.6433V34.89ZM66.0733 37.09C66.7599 37.09 67.1033 36.8667 67.1033 36.42C67.1033 36.1867 67.0233 36.0133 66.8633 35.9C66.7033 35.78 66.4533 35.72 66.1133 35.72H64.6433V37.09H66.0733ZM75.5047 36.94V39.23H74.3347V38H69.6447V32.66H70.8947V36.94H73.4447V32.66H74.6947V36.94H75.5047ZM76.6173 32.66H77.8673V38H76.6173V32.66ZM77.2473 31.78C77.0207 31.78 76.8307 31.71 76.6773 31.57C76.524 31.4233 76.4473 31.2433 76.4473 31.03C76.4473 30.8167 76.524 30.64 76.6773 30.5C76.8307 30.3533 77.0207 30.28 77.2473 30.28C77.474 30.28 77.664 30.35 77.8173 30.49C77.9707 30.6233 78.0473 30.7933 78.0473 31C78.0473 31.22 77.9707 31.4067 77.8173 31.56C77.6707 31.7067 77.4807 31.78 77.2473 31.78Z" fill="black"/>
<path fill-rule="evenodd" clip-rule="evenodd" d="M8.67659 20.5526C9.25758 20.004 9.83861 19.4555 10.4196 18.9069C10.4196 18.9069 12.4027 17.2298 12.8676 16.6783C13.0135 16.5105 13.1505 16.1552 13.2296 15.563C13.2325 15.5412 13.2369 15.519 13.2424 15.4964H13.9023C13.9343 15.6795 13.9363 15.9065 13.8103 16.1329C13.749 16.243 13.5942 16.4029 13.4292 16.5561C13.5207 16.503 13.6129 16.4622 13.6869 16.456C14.0286 16.4269 14.3183 16.4656 14.5253 16.6488C14.7499 16.8477 15.113 16.8497 15.2345 16.8578C15.4339 16.8712 14.5629 17.2669 14.1623 17.1191C13.9443 17.0387 13.476 17.0855 13.381 17.1146C13.1228 17.2255 12.6511 17.4552 12.2999 17.7832C11.7917 18.258 10.7747 19.1545 10.7747 19.1545C10.0584 19.8613 9.34203 20.568 8.62573 21.2749C8.03709 22.2349 7.44835 23.195 6.8597 24.1551C7.86231 23.7597 12.0332 18.4126 16.619 20.028V20.6834C13.1862 21.2405 6.39325 24.7668 6.37911 26.1021C5.51632 27.784 4.60248 29.0333 3.86572 29.8684H2.90625C4.41156 28.7338 6.7718 22.4503 8.67659 20.5526ZM16.619 15.4964H15.0085C14.8017 15.6411 14.6404 15.7686 14.6404 15.7686C14.8606 15.7465 14.9643 15.6933 15.2906 15.8786C15.5133 16.0051 15.683 16.0463 16.0421 16.1278C16.1268 16.1471 16.3649 16.0631 16.619 15.9496V15.4964ZM14.7179 15.4964H13.9729C13.9776 15.553 13.9864 15.6085 14 15.669C14.0669 15.9669 13.9904 16.0506 13.9072 16.2369C13.9072 16.2369 14.4619 15.7974 14.7179 15.4964ZM14.9193 16.696C14.6659 16.6025 14.5484 16.5507 14.393 16.4317C14.1654 16.2574 14.0918 16.2887 13.9364 16.2848C13.9364 16.2848 14.4858 15.8868 14.7212 15.8669C15.0629 15.838 15.3677 16.086 15.4858 16.1751C15.6039 16.2644 15.7499 16.2647 15.8714 16.2729C16.0708 16.2862 15.3199 16.8438 14.9193 16.696Z" fill="#FFEC00"/>
<path fill-rule="evenodd" clip-rule="evenodd" d="M9.21218 16.7116C9.41505 16.3257 9.6521 15.9162 9.90551 15.4964H10.9781C10.7563 15.7491 10.5656 15.9831 10.4444 16.159C10.0327 16.7567 9.14449 17.8726 8.77595 18.372C8.74975 18.4075 8.72022 18.4475 8.68855 18.4907L7.59717 20.0762C8.18695 18.1493 8.522 17.9967 9.21218 16.7116Z" fill="#FFEC00"/>
<path fill-rule="evenodd" clip-rule="evenodd" d="M7.42531 15.4964C7.26114 15.9253 7.13868 16.234 7.13868 16.234C6.81354 17.2055 6.48834 18.177 6.16321 19.1485C5.73683 20.1673 5.44289 21.2408 5.2383 22.2398C5.18817 22.6677 5.16073 22.9172 5.15337 22.249C4.69048 24.2675 4.89032 27.7278 5.07875 29.8684H5.62617C5.63991 28.1991 5.03092 24.7316 6.22697 22.5645C7.39735 20.4439 11.3428 16.9633 12.516 16.0161C10.3154 16.4348 8.07515 18.2398 7.44276 19.1937C7.28834 19.4265 6.53229 20.5377 6.24359 20.9657C6.43242 19.0701 7.18177 17.2861 7.85498 15.4964H7.42531Z" fill="#FFEC00"/>
<path fill-rule="evenodd" clip-rule="evenodd" d="M7.15293 15.4964C6.40417 21.4436 3.11574 26.9151 1.13899 29.8684H0.619141V29.6656C1.77445 27.9448 4.52537 24.2521 4.71859 21.9462C4.85198 20.354 4.30881 17.5999 3.79421 15.4964H4.77576C5.30325 16.6636 5.57798 17.8206 5.57638 18.4671C5.57575 18.7464 5.58861 20.0904 5.59146 20.6066C5.60157 20.5537 5.61069 20.5045 5.61879 20.461C5.73252 19.8476 5.94394 18.4294 6.09959 17.7171C6.20503 17.2344 6.28675 16.2699 6.31235 15.4964H7.15293Z" fill="#FFEC00"/>
<path fill-rule="evenodd" clip-rule="evenodd" d="M17.4714 11.9994V12.3304C17.5501 12.2207 17.6762 12.0927 17.8749 11.9358C18.1648 11.707 18.4378 11.4781 18.6922 11.254C19.3406 10.666 18.645 10.9066 18.4053 11.1603C18.1191 11.4048 17.8172 11.7358 17.6603 11.8564C17.6155 11.8909 17.5498 11.94 17.4714 11.9994ZM17.4714 12.7335V13.6661C17.7095 13.5212 18.2052 13.2037 18.3466 12.9911C18.6197 12.5802 18.5619 12.1389 18.684 11.8139C18.7521 11.6324 19.0614 11.4583 19.5771 11.0817C19.6844 11.0034 19.7925 10.9265 19.9011 10.8509C21.615 9.54676 20.2666 10.2149 19.8144 10.6427C18.9032 11.218 17.9285 11.8369 17.6202 12.4078C17.5465 12.5443 17.4999 12.6458 17.4714 12.7335ZM17.4714 13.8084V14.1557C17.5276 14.1764 17.5915 14.2066 17.6676 14.2498C17.762 14.3034 17.8472 14.3404 17.9413 14.372H19.0138C19.4345 14.2014 19.9187 13.9188 20.1032 13.8179L20.9985 13.3296C21.4286 13.1305 21.267 12.9545 20.7688 13.2284L20.1171 13.5895C19.563 13.8832 19.3503 13.8412 19.1811 13.7467C19.0119 13.6521 18.6046 13.3675 18.1207 13.4643C17.9605 13.4964 17.6994 13.6537 17.4714 13.8084ZM17.4714 14.2996V14.372H17.6575C17.6002 14.3457 17.5379 14.3206 17.4714 14.2996ZM19.4205 14.372H19.8764C19.9391 14.3219 19.8904 14.2989 19.8904 14.2989C19.8111 14.2379 19.6283 14.286 19.4205 14.372ZM24.0535 9.9982C23.9817 10.035 22.4069 10.8445 22.2595 10.93C22.1122 11.0157 21.9097 11.2165 21.7755 11.4261C21.6412 11.6357 21.3798 11.8688 21.3798 11.8688C21.2502 11.7338 20.241 11.6333 20.241 11.6333C20.241 11.6333 20.318 11.4098 20.3571 11.3093C20.3962 11.2087 20.7665 10.942 20.9898 10.8276C21.2131 10.7133 21.5766 10.743 21.6567 10.7421C21.737 10.7415 22.0573 10.7317 22.1847 10.6464C22.6602 10.3537 27.0247 8.19873 24.0535 9.9982ZM22.6892 11.7216C22.3926 11.8565 21.8546 12.1889 21.6898 12.2866C21.5251 12.3843 20.8715 12.7324 20.5512 12.7621C20.231 12.792 19.8066 12.5396 19.8066 12.5396C19.8066 12.5396 20.0887 11.8776 20.1503 11.7753C20.4042 11.7233 20.6518 11.7888 21.1306 11.9019C21.2243 11.9241 21.6227 12.0441 21.8408 11.9459C22.0589 11.8477 22.6497 11.5535 22.9635 11.4064C24.8686 10.5997 23.0437 11.5739 22.6892 11.7216ZM20.1337 11.3646C20.0496 11.8141 19.788 12.2079 19.4858 12.4546C19.2223 12.6694 18.4138 13.0544 18.4138 13.0544C18.5466 12.8775 18.6169 12.8144 18.6559 12.4413C18.678 12.2301 18.752 11.9464 18.7953 11.8493C18.9454 11.5131 20.8214 10.4733 21.108 10.3064C23.0733 8.5604 23.0888 8.97945 21.9359 9.98788C21.5937 10.2872 20.1702 11.1696 20.1337 11.3646ZM19.4778 13.6176C19.1205 13.5289 19.0913 13.5211 18.8992 13.4308C18.5596 13.2713 18.4693 13.2987 18.2491 13.3208C18.2491 13.3208 18.9836 12.7804 19.317 12.7137C19.8009 12.617 20.2155 12.7791 20.3847 12.8738C20.8824 13.1515 21.9661 11.8243 23.301 11.8953C23.301 11.8953 23.7179 11.9234 23.2941 12.0196C22.3741 12.2284 19.8383 13.7071 19.4778 13.6176Z" fill="#FFEC00"/>
<path fill-rule="evenodd" clip-rule="evenodd" d="M17.4714 9.54694C17.9461 9.29357 18.377 9.09385 18.6936 9.00399C18.6936 9.00399 19.8473 8.58304 20.5522 8.5254C21.257 8.46787 21.8746 8.51949 22.2141 8.6572C22.2141 8.6572 20.3135 8.88786 19.652 9.21181C18.9903 9.53604 18.0517 9.92133 17.4902 10.2005C17.484 10.2036 17.4777 10.2068 17.4714 10.2099V9.54694ZM17.4714 3.87866V4.34318C17.6484 4.15051 17.8176 3.95961 17.9786 3.77193C18.6404 2.97733 17.8592 3.36468 17.6213 3.70174C17.5712 3.75829 17.521 3.81789 17.4714 3.87866ZM17.4714 4.4617V6.38737C17.6539 6.21339 17.8209 6.03049 17.8858 5.89238C18.1347 5.36305 17.9856 4.84552 18.0712 4.44046C18.1188 4.21428 18.4539 3.96201 18.9967 3.43859C19.1097 3.32971 19.2239 3.22242 19.3389 3.11657C21.1336 1.31428 19.6563 2.30564 19.198 2.88098C18.5767 3.40162 17.9282 3.94699 17.4714 4.4617ZM17.4714 6.61284V7.54933C17.6878 7.61689 17.8927 7.63567 18.2471 7.67915C18.6873 7.73316 19.8043 6.85536 20.1202 6.62371L21.0929 5.91215C21.5667 5.61269 21.3429 5.42622 20.802 5.82473L20.095 6.34942C19.4914 6.77964 19.2315 6.76039 19.0135 6.67227C18.7955 6.58391 18.2606 6.30365 17.7043 6.48902C17.6373 6.51135 17.5575 6.55542 17.4714 6.61284ZM17.4714 7.69115V8.71127C17.9574 8.54405 18.5539 8.20214 18.7773 8.03838C19.2793 7.7247 19.2145 7.81188 19.732 7.46178C20.0959 7.27392 19.9556 7.22771 19.9556 7.22771C19.7576 7.11255 19.1954 7.51073 18.8034 7.7816C18.4112 8.05248 17.9431 7.88532 17.7251 7.79695C17.6636 7.77206 17.5769 7.73187 17.4714 7.69115ZM24.1082 1.49958C24.0299 1.55386 22.3098 2.74648 22.1505 2.86976C21.9914 2.99317 21.788 3.26176 21.667 3.53106C21.5461 3.80026 21.2785 4.11589 21.2785 4.11589C21.1002 3.97371 19.8849 3.99998 19.8849 3.99998C19.8849 3.99998 19.9354 3.72242 19.9634 3.59699C19.9915 3.47143 20.382 3.09993 20.6259 2.93138C20.8699 2.76284 21.3065 2.74554 21.4013 2.73298C21.4964 2.72061 21.8746 2.66261 22.01 2.54245C22.5206 2.12487 27.3038 -1.07503 24.1082 1.49958ZM22.8046 3.75104C22.4776 3.95476 21.9001 4.42873 21.7225 4.56901C21.545 4.70925 20.8332 5.21873 20.4588 5.30053C20.0845 5.38241 19.535 5.14299 19.535 5.14299C19.535 5.14299 19.7488 4.31312 19.8033 4.18235C20.0949 4.08358 20.4005 4.1259 20.9891 4.19144C21.1042 4.20434 21.5987 4.28976 21.8393 4.1411C22.0801 3.99244 22.7272 3.5564 23.0725 3.33569C25.1848 2.0985 23.1982 3.52369 22.8046 3.75104ZM19.7086 3.69517C19.6908 4.2431 19.4524 4.7503 19.1391 5.08811C18.8658 5.3823 17.9771 5.95813 17.9771 5.95813C18.1023 5.72808 18.1742 5.64259 18.1523 5.19226C18.14 4.93738 18.176 4.58856 18.2096 4.46657C18.3262 4.04408 20.5181 2.41365 20.8275 2.17333C21.1369 1.93315 21.3792 1.75448 21.5094 1.64166C23.4017 0.00495434 23.5194 0.476082 21.7384 1.88589C21.0435 2.43605 21.3159 2.21315 20.6489 2.74511C20.0697 3.20701 19.716 3.46297 19.7086 3.69517ZM19.3419 6.47539C18.9018 6.42139 18.8659 6.41632 18.6215 6.33644C18.1896 6.19548 18.0875 6.24118 17.8304 6.29942C17.8304 6.29942 18.6029 5.54904 18.9861 5.42132C19.5424 5.23608 20.0637 5.36928 20.2818 5.45772C20.9227 5.71675 21.9658 3.97807 23.562 3.86954C23.562 3.86954 24.0616 3.84273 23.5765 4.01863C22.5235 4.4006 19.7857 6.52989 19.3419 6.47539Z" fill="#FFEC00"/>
<path fill-rule="evenodd" clip-rule="evenodd" d="M16.6204 12.1624V12.5006C16.5399 12.5781 16.4591 12.6502 16.3865 12.7105C16.0764 12.968 16.102 13.3774 16.1223 13.5702C16.1379 13.7193 16.2019 14.0443 16.1008 14.372H15.0685C15.0821 14.2616 15.104 14.1373 15.1306 13.9744C15.1897 13.6109 15.9125 12.8827 16.1733 12.6779C16.4335 12.4212 16.4939 12.3421 16.6204 12.1624ZM16.6204 12.7221V14.2595C16.5568 14.2995 16.4941 14.3375 16.4357 14.372H16.2234C16.2763 14.2682 16.3053 14.1522 16.2808 13.9112C16.255 13.6563 16.2929 13.4858 16.3558 13.123C16.3749 13.0128 16.4783 12.8713 16.6204 12.7221ZM14.8994 14.372H14.3779C14.6901 14.0341 15.0726 13.7748 15.0121 13.9243C14.9564 14.0619 14.8806 14.2246 14.8994 14.372Z" fill="#FFEC00"/>
<path fill-rule="evenodd" clip-rule="evenodd" d="M10.6028 14.372C11.2977 13.2656 11.9979 12.1687 12.3964 11.3112C12.4931 11.1115 12.5302 10.7299 12.4472 10.1292C12.377 9.62207 12.9516 8.72623 12.9222 8.98499C12.9038 9.14359 12.8393 9.45619 12.9137 9.59984C12.9878 9.7435 13.2762 10.0989 13.1665 10.55C13.1366 10.6726 13.0291 10.867 12.9098 11.0569C12.9847 10.983 13.0634 10.9207 13.1337 10.8968C13.4585 10.7865 13.7509 10.7553 14.002 10.8856C14.2743 11.0271 14.6282 10.9421 14.7486 10.921C14.9462 10.8864 14.2056 11.4834 13.7757 11.4342C13.5418 11.4075 13.0986 11.5657 13.0141 11.6169C12.7927 11.7874 12.3956 12.1259 12.1426 12.5319C11.7764 13.1199 11.0288 14.2435 11.0288 14.2435L10.9536 14.372H10.6028ZM11.0676 14.372C12.0082 13.3949 13.2659 12.147 13.875 11.7959C13.875 11.7959 15.2617 10.8321 16.6242 10.0267V10.7147C16.0249 11.1036 15.3832 11.5648 15.0918 11.7785C14.6061 12.1348 13.0977 13.4832 12.5575 13.9151C12.4238 14.022 12.2469 14.1825 12.0508 14.372H11.0676ZM16.6242 4.88142V7.10014C16.3806 7.46963 15.5332 8.07281 15.5332 8.07281C15.6272 7.82764 15.7211 7.72695 15.6078 7.28757C15.5307 6.98747 15.5445 6.7788 15.5529 6.33729C15.5596 5.98418 16.2194 5.2887 16.6242 4.88142ZM16.6242 7.34874V7.4282C16.5918 7.43662 16.5577 7.44542 16.5207 7.4538C16.5207 7.4538 16.5596 7.41327 16.6242 7.34874ZM16.6242 7.56496V8.76276C16.3904 8.73188 16.2263 8.69941 16.0235 8.61579C15.6026 8.44222 15.4893 8.52047 15.2323 8.57877C15.2323 8.57877 16.0345 7.74156 16.4176 7.61382C16.487 7.59071 16.556 7.57486 16.6242 7.56496ZM16.6242 8.99646V9.51322C16.2689 9.75069 15.8649 9.97763 15.731 9.96382C15.2902 9.91864 15.0814 9.89401 14.7942 9.77552C14.3734 9.60188 14.2601 9.68022 14.003 9.7385C14.003 9.7385 14.8051 8.90141 15.1882 8.7737C15.7446 8.58818 16.2797 8.8686 16.4975 8.95657C16.5382 8.97308 16.5807 8.98623 16.6242 8.99646ZM14.1055 7.48673C14.0619 7.66986 13.9965 7.89013 14.0644 8.06949C14.132 8.24856 14.331 8.71151 14.1379 9.22616C14.005 9.58068 13.2188 10.4027 13.2188 10.4027C13.2835 10.1685 13.359 10.0578 13.2252 9.71239C13.134 9.4764 13.1166 9.29886 13.104 8.91562C13.0839 8.30975 14.177 7.1862 14.1055 7.48673ZM15.3576 6.90409C15.4167 7.13075 15.6255 7.69601 15.3684 8.22098C15.191 8.58303 14.253 9.26586 14.253 9.26586C14.3445 9.0194 14.4373 8.9178 14.3197 8.47954C14.2395 8.18012 14.2512 7.9711 14.2552 7.52925C14.2589 7.08743 14.9833 6.11501 15.2552 5.8332C15.6165 5.35911 15.588 5.34315 15.8655 4.81285C16.1042 4.35688 16.2032 4.64932 16.2032 4.64932C16.2919 4.86006 15.8349 5.48928 15.514 5.84114C15.1932 6.19288 15.2983 6.67712 15.3576 6.90409ZM14.5031 10.8035C14.1854 10.7287 14.0366 10.684 13.8305 10.5646C13.5288 10.3898 13.4472 10.4377 13.2622 10.4556C13.2622 10.4556 13.8411 9.90168 14.1167 9.84391C14.5168 9.75998 14.9236 10.0115 15.0798 10.1007C15.2362 10.19 15.4094 10.1693 15.555 10.1614C15.7939 10.1484 15.0051 10.9216 14.5031 10.8035Z" fill="#FFEC00"/>
<path fill-rule="evenodd" clip-rule="evenodd" d="M8.27137 14.3563C8.42608 13.9015 8.73384 13.4765 8.90924 13.257C8.97926 13.1868 9.37011 12.9244 9.60024 12.8924C10.0232 12.8339 10.6046 12.074 10.4225 12.1563C10.3116 12.2065 9.99045 12.3759 9.69872 12.3066C9.42963 12.2426 9.15599 12.3451 8.86837 12.532C8.80602 12.5724 8.74406 12.6519 8.68812 12.7418C8.7615 12.5289 8.82262 12.3147 8.8247 12.1888C8.83244 11.7259 8.47894 11.4539 8.37686 11.3334C8.27447 11.2129 8.26881 10.8949 8.25202 10.7379C8.2244 10.48 7.86696 11.4874 8.04396 11.96C8.25343 12.5197 8.3002 12.8975 8.25073 13.1143C8.19593 13.3723 8.03312 13.8587 7.84863 14.372H8.26598L8.27137 14.3563Z" fill="#FFEC00"/>
<path fill-rule="evenodd" clip-rule="evenodd" d="M10.2795 6.15637C10.1199 6.51643 9.76693 7.68297 9.90719 8.09735C10.0475 8.51167 10.1047 8.71115 10.2763 8.96248C10.5278 9.33051 10.4752 9.45851 10.4706 9.72132C10.4706 9.72132 11.1156 8.74961 11.1617 8.34845C11.2285 7.76617 10.8514 7.31188 10.7229 7.12106C10.5941 6.93011 10.3394 6.51476 10.5214 6.07167C10.7036 5.62885 10.9741 4.99148 10.8235 4.82601C10.8235 4.82601 10.7509 4.70064 10.6431 5.09705C10.4099 5.67996 10.4808 5.59691 10.2795 6.15637ZM14.1076 0.0507202C14.1386 0.0564301 14.1694 0.062709 14.2001 0.0693548C14.1583 0.231543 14.0776 0.498109 13.9447 0.902779C13.8015 1.28879 13.5115 2.01725 13.4167 2.28515C13.3219 2.55295 13.5033 3.01278 13.5388 3.12149C13.7199 3.67713 13.8219 3.96387 13.7853 4.26952C13.6704 4.35261 12.9145 4.75183 12.9145 4.75183C12.9145 4.75183 12.5738 4.27422 12.5776 3.89226C12.5812 3.51019 12.9289 2.70207 13.0283 2.49741C13.1277 2.29275 13.4681 1.62301 13.5986 1.25868C13.668 1.04335 13.9422 0.380202 14.1076 0.0507202ZM15.1095 0.426983C15.2096 0.486333 15.3062 0.551133 15.3987 0.621109C15.1858 1.15258 14.9963 1.60159 14.9213 1.7499C14.8328 1.90904 14.8528 2.28929 14.86 2.38433C14.8669 2.47926 14.9378 2.90673 14.8245 3.18232C14.7112 3.45789 14.4319 3.92254 14.3166 3.97881C14.2015 4.03501 13.9445 4.14815 13.9445 4.14815C13.9445 4.14815 13.7261 2.96333 13.5535 2.8233C13.5535 2.8233 13.8036 2.49077 14.0385 2.31119C14.2734 2.13162 14.4912 1.87215 14.578 1.68932C14.6247 1.59083 14.879 0.981995 15.1095 0.426983ZM15.9635 1.17449C16.0397 1.27097 16.1102 1.37211 16.1745 1.47735C16.0925 1.64244 15.9976 1.82551 15.8887 2.02713C15.8062 2.17947 15.6828 2.45583 15.5137 2.81146C15.3444 3.16715 14.2146 5.67012 13.8314 5.881C13.7207 5.94177 13.3921 6.05738 13.1444 6.10439C12.7065 6.18726 12.6386 6.27679 12.4423 6.45148C12.4423 6.45148 12.8183 5.45627 13.0467 5.1232C13.309 4.74113 13.7494 4.39261 14.2733 4.24871C14.4953 4.18774 14.6707 3.78551 14.9992 3.11693C15.3774 2.34692 15.2175 2.66272 15.6077 1.86144C15.7357 1.59853 15.8551 1.3696 15.9635 1.17449ZM13.8842 6.00917C13.5115 6.18585 12.9835 6.16088 12.5239 6.52472C12.2073 6.77546 11.7326 7.78833 11.7326 7.78833C11.9535 7.64602 12.0739 7.62816 12.5192 7.6135C12.7715 7.60507 12.9198 7.56624 13.2861 7.32715C13.9315 6.90581 14.568 5.69099 15.1593 4.55558C15.6212 3.97805 16.2792 2.31591 14.9043 4.47343C14.8255 4.60945 14.7451 4.74506 14.663 4.87977C14.268 5.52733 14.0924 5.9107 13.8842 6.00917ZM12.9322 7.67429C12.7018 7.67162 12.1154 7.60559 11.6653 7.98138C11.3553 8.23992 10.8973 9.31245 10.8973 9.31245C11.1144 9.16458 11.1925 9.05022 11.6381 9.05842C11.9425 9.06382 12.1405 9.00215 12.5638 8.89194C12.9873 8.78167 13.7215 7.5564 13.9349 7.22525C14.0622 7.02771 14.4243 6.63757 14.6855 6.2747C14.9622 5.96599 15.1784 5.11874 14.5463 5.94436C14.3061 6.26756 14.062 6.61339 13.8197 6.97909C13.4082 7.60001 13.1622 7.67691 12.9322 7.67429ZM11.7477 10.5616C11.5802 10.6462 11.3813 10.7606 11.195 10.7362C11.0091 10.7121 10.5236 10.6261 10.067 10.9325C9.75234 11.1433 9.11884 12.096 9.11884 12.096C9.3312 11.9791 9.42264 11.8803 9.78194 11.9301C10.0274 11.9641 10.2018 11.9399 10.5732 11.8635C11.1604 11.7428 12.0227 10.4228 11.7477 10.5616ZM12.0574 9.21245C11.8274 9.2075 11.2414 9.13575 10.7877 9.50654C10.4748 9.76227 10.0057 10.8301 10.0057 10.8301C10.2245 10.6842 10.3037 10.5708 10.7491 10.5835C11.0534 10.592 11.2522 10.5323 11.6768 10.4263C12.1013 10.3205 12.892 9.39296 13.1087 9.06411C13.4926 8.60402 13.5137 8.62801 13.9684 8.23619C14.3595 7.89925 14.0581 7.87081 14.0581 7.87081C13.8375 7.83357 13.3235 8.42228 13.0492 8.81488C12.7749 9.20736 12.2878 9.21743 12.0574 9.21245ZM11.6707 5.24732C11.811 5.66164 11.8231 5.69537 11.9489 5.91392C12.1712 6.3002 12.1477 6.40981 12.1432 6.67264C12.1432 6.67264 12.7106 5.74986 12.7567 5.34861C12.8234 4.76625 12.5906 4.29138 12.4618 4.10033C12.084 3.53864 13.5483 2.12479 13.3327 0.551523C13.3327 0.551523 13.2583 0.0607417 13.1862 0.571935C13.0298 1.68163 11.5293 4.82946 11.6707 5.24732ZM11.3719 4.52672C11.2123 4.88673 10.5914 6.17311 10.7316 6.58756C10.8718 7.0019 10.9292 7.20142 11.1008 7.45265C11.3522 7.82073 11.2996 7.94872 11.2951 8.21142C11.2951 8.21142 11.9399 7.23995 11.986 6.8388C12.0529 6.25639 11.6758 5.80232 11.5471 5.61134C11.4186 5.42033 11.3479 5.17264 11.641 4.48777L12.0042 3.68061C12.2793 3.06387 12.055 2.88994 11.8617 3.41872L11.3719 4.52672ZM8.47552 10.943C8.61116 11.2339 8.68405 11.3678 8.8403 11.5401C9.06905 11.7923 9.03929 11.8825 9.05921 12.0661C9.05921 12.0661 9.47623 11.3765 9.47659 11.0959C9.47718 10.6885 9.15342 10.3521 9.0363 10.2212C8.91898 10.0901 8.90418 9.91728 8.8826 9.77425C8.84714 9.53956 8.26109 10.4834 8.47552 10.943ZM9.40655 10.4229C9.65806 10.791 9.60541 10.919 9.60086 11.1818C9.60086 11.1818 10.2457 10.2103 10.2918 9.80909C10.3588 9.22652 9.9816 8.77244 9.85326 8.58152C9.72453 8.39059 9.67872 8.12991 9.67434 7.92512C9.66697 7.58833 8.95225 9.28907 9.03746 9.55789C9.16932 9.975 9.2349 10.1718 9.40655 10.4229Z" fill="#FFEC00"/>
<path fill-rule="evenodd" clip-rule="evenodd" d="M5.20961 4.99175C5.63434 5.55098 6.0957 6.68996 6.0957 6.68996C6.71758 7.95529 7.28405 12.1544 7.28405 12.1544C7.32387 12.8963 7.3141 13.6367 7.26324 14.372H6.2961C6.25542 13.5287 6.22333 11.8347 6.16402 11.2945C6.10325 10.7397 5.91357 9.17475 5.70691 8.44525C5.53543 7.84009 5.19081 6.88422 4.9854 6.17476C4.7799 5.46518 3.67687 3.88828 3.67687 3.88828C3.99976 4.04435 4.78485 4.43258 5.20961 4.99175ZM3.50743 14.372C3.35246 13.7922 3.21463 13.3171 3.11816 13.0093C3.5203 13.4039 3.87584 13.8728 4.18283 14.372H3.50743Z" fill="#FFEC00"/>
</svg>
