<svg width="65" height="65" viewBox="0 0 65 65" fill="none" xmlns="http://www.w3.org/2000/svg">
<g clip-path="url(#clip0)">
<path d="M9.75 43.3333C4.90409 43.3333 0 44.8219 0 47.6667V60.6667C0 63.5115 4.90409 65 9.75 65C14.5959 65 19.5 63.5115 19.5 60.6667V47.6667C19.5 44.8219 14.5959 43.3333 9.75 43.3333ZM9.75 45.5C14.6758 45.5 17.3333 47.0383 17.3333 47.6667C17.3333 48.2951 14.6758 49.8333 9.75 49.8333C4.82422 49.8333 2.16667 48.2951 2.16667 47.6667C2.16667 47.0383 4.82422 45.5 9.75 45.5ZM9.75 62.8333C4.82422 62.8333 2.16667 61.2951 2.16667 60.6667V59.1501C4.54651 60.2255 7.14006 60.7439 9.75 60.6667C12.3599 60.7439 14.9535 60.2255 17.3333 59.1501V60.6667C17.3333 61.2951 14.6758 62.8333 9.75 62.8333ZM9.75 58.5C4.82422 58.5 2.16667 56.9618 2.16667 56.3333V54.8168C4.54651 55.8922 7.14006 56.4106 9.75 56.3333C12.3599 56.4106 14.9535 55.8922 17.3333 54.8168V56.3333C17.3333 56.9618 14.6758 58.5 9.75 58.5ZM9.75 54.1667C4.82422 54.1667 2.16667 52.6284 2.16667 52V50.4834C4.54651 51.5588 7.14006 52.0772 9.75 52C12.3599 52.0772 14.9535 51.5588 17.3333 50.4834V52C17.3333 52.6284 14.6758 54.1667 9.75 54.1667Z" fill="#4B9220"/>
<path d="M32.5 34.6667C27.6541 34.6667 22.75 36.1552 22.75 39V60.6667C22.75 63.5115 27.6541 65 32.5 65C37.3459 65 42.25 63.5115 42.25 60.6667V39C42.25 36.1552 37.3459 34.6667 32.5 34.6667ZM32.5 36.8334C37.4258 36.8334 40.0833 38.3716 40.0833 39C40.0833 39.6284 37.4258 41.1667 32.5 41.1667C27.5742 41.1667 24.9167 39.6284 24.9167 39C24.9167 38.3716 27.5742 36.8334 32.5 36.8334ZM32.5 62.8334C27.5742 62.8334 24.9167 61.2951 24.9167 60.6667V59.1501C27.2965 60.2255 29.8901 60.7439 32.5 60.6667C35.1099 60.7439 37.7035 60.2255 40.0833 59.1501V60.6667C40.0833 61.2951 37.4258 62.8334 32.5 62.8334ZM32.5 58.5C27.5742 58.5 24.9167 56.9618 24.9167 56.3334V54.8168C27.2965 55.8922 29.8901 56.4106 32.5 56.3334C35.1099 56.4106 37.7035 55.8922 40.0833 54.8168V56.3334C40.0833 56.9618 37.4258 58.5 32.5 58.5ZM32.5 54.1667C27.5742 54.1667 24.9167 52.6284 24.9167 52V50.4835C27.2965 51.5589 29.8901 52.0772 32.5 52C35.1099 52.0772 37.7035 51.5589 40.0833 50.4835V52C40.0833 52.6284 37.4258 54.1667 32.5 54.1667ZM32.5 49.8334C27.5742 49.8334 24.9167 48.2951 24.9167 47.6667V46.1501C27.2965 47.2255 29.8901 47.7439 32.5 47.6667C35.1099 47.7439 37.7035 47.2255 40.0833 46.1501V47.6667C40.0833 48.2951 37.4258 49.8334 32.5 49.8334ZM32.5 45.5C27.5742 45.5 24.9167 43.9618 24.9167 43.3334V41.8168C27.2965 42.8922 29.8901 43.4106 32.5 43.3334C35.1099 43.4106 37.7035 42.8922 40.0833 41.8168V43.3334C40.0833 43.9618 37.4258 45.5 32.5 45.5Z" fill="#4B9220"/>
<path d="M55.25 21.6667C50.4041 21.6667 45.5 23.1552 45.5 26V60.6667C45.5 63.5115 50.4041 65 55.25 65C60.0959 65 65 63.5115 65 60.6667V26C65 23.1552 60.0959 21.6667 55.25 21.6667ZM55.25 23.8334C60.1758 23.8334 62.8333 25.3716 62.8333 26C62.8333 26.6284 60.1758 28.1667 55.25 28.1667C50.3242 28.1667 47.6667 26.6284 47.6667 26C47.6667 25.3716 50.3242 23.8334 55.25 23.8334ZM55.25 62.8334C50.3242 62.8334 47.6667 61.2951 47.6667 60.6667V59.1501C50.0465 60.2255 52.6401 60.7439 55.25 60.6667C57.8599 60.7439 60.4535 60.2255 62.8333 59.1501V60.6667C62.8333 61.2951 60.1758 62.8334 55.25 62.8334ZM55.25 58.5C50.3242 58.5 47.6667 56.9618 47.6667 56.3334V54.8168C50.0465 55.8922 52.6401 56.4106 55.25 56.3334C57.8599 56.4106 60.4535 55.8922 62.8333 54.8168V56.3334C62.8333 56.9618 60.1758 58.5 55.25 58.5ZM55.25 54.1667C50.3242 54.1667 47.6667 52.6284 47.6667 52V50.4835C50.0465 51.5589 52.6401 52.0772 55.25 52C57.8599 52.0772 60.4535 51.5589 62.8333 50.4835V52C62.8333 52.6284 60.1758 54.1667 55.25 54.1667ZM55.25 49.8334C50.3242 49.8334 47.6667 48.2951 47.6667 47.6667V46.1501C50.0465 47.2255 52.6401 47.7439 55.25 47.6667C57.8599 47.7439 60.4535 47.2255 62.8333 46.1501V47.6667C62.8333 48.2951 60.1758 49.8334 55.25 49.8334ZM55.25 45.5C50.3242 45.5 47.6667 43.9618 47.6667 43.3334V41.8168C50.0465 42.8922 52.6401 43.4106 55.25 43.3334C57.8599 43.4106 60.4535 42.8922 62.8333 41.8168V43.3334C62.8333 43.9618 60.1758 45.5 55.25 45.5ZM55.25 41.1667C50.3242 41.1667 47.6667 39.6284 47.6667 39V37.4835C50.0465 38.5589 52.6401 39.0772 55.25 39C57.8599 39.0772 60.4535 38.5589 62.8333 37.4835V39C62.8333 39.6284 60.1758 41.1667 55.25 41.1667ZM55.25 36.8334C50.3242 36.8334 47.6667 35.2951 47.6667 34.6667V33.1501C50.0465 34.2255 52.6401 34.7439 55.25 34.6667C57.8599 34.7439 60.4535 34.2255 62.8333 33.1501V34.6667C62.8333 35.2951 60.1758 36.8334 55.25 36.8334ZM55.25 32.5C50.3242 32.5 47.6667 30.9618 47.6667 30.3334V28.8168C50.0465 29.8922 52.6401 30.4106 55.25 30.3334C57.8599 30.4106 60.4535 29.8922 62.8333 28.8168V30.3334C62.8333 30.9618 60.1758 32.5 55.25 32.5Z" fill="#4B9220"/>
<path d="M53.0832 0V2.16667H61.3013L40.718 22.75H18.0093L0.369141 38.1843L1.79736 39.8157L18.8239 24.9167H41.6152L62.8332 3.69857V11.9167H64.9999V0H53.0832Z" fill="#4B9220"/>
</g>
<defs>
<clipPath id="clip0">
<rect width="65" height="65" fill="white"/>
</clipPath>
</defs>
</svg>
