<svg width="65" height="65" viewBox="0 0 65 65" fill="none" xmlns="http://www.w3.org/2000/svg">
<path d="M42.2754 44.0527C42.9765 44.0527 43.5449 43.4843 43.5449 42.7832C43.5449 42.0821 42.9765 41.5137 42.2754 41.5137C41.5742 41.5137 41.0059 42.0821 41.0059 42.7832C41.0059 43.4843 41.5742 44.0527 42.2754 44.0527Z" fill="#4B9220"/>
<path d="M52.9395 31.2305C51.4644 31.2305 50.1627 31.3587 48.9959 31.5792C45.9828 25.5107 39.7221 21.3281 32.5 21.3281C25.2882 21.3281 19.034 25.4983 16.0159 31.5525C14.8812 31.3488 13.6175 31.2305 12.1875 31.2305C0.138506 31.2305 0 37.3189 0 37.5781V63.7305C0 64.4316 0.568496 65 1.26953 65H32.5H63.7305C64.4315 65 65 64.4316 65 63.7305V37.5781C65 37.3189 64.8629 31.2305 52.9395 31.2305ZM32.5 23.8672C38.5442 23.8672 43.8086 27.2648 46.4874 32.2496C43.6447 33.2509 41.366 35.1689 38.7898 36.6562C37.3475 37.4888 35.4721 38.3398 32.5 38.3398C26.9791 38.3398 23.4592 33.8912 18.5392 32.2032C21.2259 27.2441 26.4749 23.8672 32.5 23.8672ZM2.53906 37.6041C2.54757 37.5039 2.64862 36.6729 3.67529 35.8131C4.78816 34.8808 7.16841 33.7695 12.1875 33.7695C17.5123 33.7695 20.0355 35.5109 22.7068 37.3547C25.2175 39.0873 27.8134 40.8789 32.5 40.8789C32.5441 40.8789 29.4922 43.0337 29.4922 43.0337C24.1559 42.9617 21.4739 41.2162 18.8801 39.5258C16.6418 38.0673 14.5278 36.6895 11.1719 36.6895C7.95171 36.6895 4.60027 38.2203 2.53906 39.3685V37.6041ZM2.53906 48.9082C3.99344 47.9364 8.22669 45.3223 11.6797 45.3223C12.3817 45.3223 13.0065 44.8133 13.0165 44.0708C13.0264 43.3412 12.3892 42.7879 11.6797 42.7832C8.38043 42.7832 4.73929 44.5952 2.53906 45.9042V42.3234C3.92323 41.4442 7.75163 39.2285 11.1719 39.2285C13.7733 39.2285 15.4152 40.2985 17.4938 41.6531C19.6051 43.029 22.1249 44.6683 26.1847 45.3041L22.8451 47.5966C20.3878 47.4867 18.8195 46.3431 17.1658 45.1334C16.567 44.6961 15.7493 44.6777 15.2764 45.3248C14.8627 45.8909 14.9862 46.6851 15.5523 47.0988C16.9147 48.0966 18.3041 49.0584 19.9173 49.6064C19.9173 49.6064 16.5167 51.9407 16.5099 51.9453C16.2859 51.9945 15.4818 51.2101 15.2852 51.0791C12.9031 49.4915 9.76549 49.3731 7.13857 50.3763C5.46089 51.017 3.81456 51.9337 2.53906 52.7266V48.9082ZM2.53906 55.7577C3.14247 55.3452 4.25661 54.614 5.53135 53.9232C8.22567 52.4634 11.5832 51.5256 14.3135 53.4529L2.53906 61.5353V55.7577ZM62.4609 62.4609H55.6034C56.6843 60.1515 59.0037 56.1845 62.4609 55.3731V62.4609ZM62.4609 52.7855C56.9042 53.6581 53.7941 60.0872 52.8258 62.4609H46.8928C49.48 58.6782 55.7789 50.5672 62.4609 50.1389V52.7855ZM62.4609 41.5769C60.2911 41.7551 55.7432 42.435 51.8544 45.0276C49.0657 46.8867 47.0787 49.0873 45.1571 51.2154C43.778 52.7428 42.4753 54.1854 40.9787 55.3724C40.4294 55.808 40.3372 56.6065 40.7728 57.1558C41.1828 57.6729 42.0193 57.7877 42.5563 57.3617C44.2184 56.0436 45.5898 54.5248 47.0415 52.917C48.8587 50.9044 50.7377 48.8234 53.2627 47.1401C56.5359 44.958 60.4777 44.3178 62.4608 44.1302V47.5966C53.4186 48.0575 45.6521 59.5797 43.848 62.4607H35.9397L38.5719 60.5723C39.1416 60.1636 39.2722 59.3704 38.8634 58.8006C38.4547 58.231 37.6617 58.1003 37.0919 58.5091L31.5839 62.4609H25.0647L40.692 52.0931C41.2764 51.7055 41.4356 50.9176 41.0481 50.3334C40.6604 49.749 39.8724 49.59 39.2884 49.9773L20.472 62.4609H14.4419L38.741 46.6756C39.3275 46.2947 39.495 45.5065 39.1143 44.92C38.7469 44.354 37.9215 44.1794 37.3571 44.5466L9.77894 62.4609H5.67722C5.67722 62.4609 43.8426 36.2185 45.9043 35.2309C48.1051 34.1767 50.5112 33.7695 52.9395 33.7695C55.7842 33.7695 59.8479 33.9178 61.8398 36.3125C59.0968 36.3594 53.8331 36.8949 49.4215 39.9637C48.846 40.3641 48.7039 41.1553 49.1043 41.7308C49.4899 42.2849 50.2977 42.447 50.8715 42.048C55.0429 39.1461 60.2872 38.8418 62.4609 38.854V41.5769Z" fill="#4B9220"/>
<path d="M32.5 0C31.8005 0 31.2305 0.570019 31.2305 1.26953V3.55469C31.2305 4.2542 31.8005 4.82422 32.5 4.82422C33.1995 4.82422 33.7695 4.2542 33.7695 3.55469V1.26953C33.7695 0.570019 33.1995 0 32.5 0Z" fill="#4B9220"/>
<path d="M32.5 12.4414C31.8005 12.4414 31.2305 13.0114 31.2305 13.7109V17.5195C31.2305 18.219 31.8005 18.7891 32.5 18.7891C33.1995 18.7891 33.7695 18.219 33.7695 17.5195V13.7109C33.7695 13.0114 33.1995 12.4414 32.5 12.4414Z" fill="#4B9220"/>
<path d="M44.7548 0.0825239C44.1239 -0.154751 43.3654 0.169995 43.1195 0.820122C43.1195 0.820122 41.6654 4.66782 41.6634 4.67315C41.4203 5.31655 41.7636 6.06735 42.401 6.30958C43.0445 6.55409 43.7962 6.21004 44.0374 5.57071C44.0374 5.57071 45.4919 1.72327 45.4936 1.71895C45.7381 1.07212 45.3985 0.324497 44.7548 0.0825239Z" fill="#4B9220"/>
<path d="M39.7074 13.4342C39.0599 13.1907 38.3162 13.5262 38.0722 14.1731C38.0722 14.1731 36.7279 17.7287 36.7254 17.7354C36.4829 18.3763 36.8277 19.1325 37.4641 19.3718C38.1109 19.6149 38.8559 19.278 39.0993 18.633C39.0993 18.633 40.4445 15.0754 40.4462 15.0707C40.6891 14.4284 40.3466 13.6746 39.7074 13.4342Z" fill="#4B9220"/>
<path d="M46.623 16.4899C46.1092 16.0399 45.2825 16.0904 44.8316 16.6016C44.8316 16.6016 42.3187 19.4516 42.3128 19.4581C41.8583 19.9735 41.9106 20.7971 42.4244 21.2493C42.9409 21.7039 43.7624 21.6534 44.2159 21.1377C44.2159 21.1377 46.7295 18.2883 46.7359 18.2812C47.19 17.7664 47.1377 16.9409 46.623 16.4899Z" fill="#4B9220"/>
<path d="M60.8887 0.317386C60.3709 -0.140915 59.5526 -0.0875946 59.0962 0.429105C59.0962 0.429105 51.5643 8.96823 51.5488 8.98575C51.0939 9.50156 51.1477 10.3242 51.6618 10.7771C52.1754 11.2295 53.0018 11.1759 53.4531 10.6653C53.4531 10.6653 60.9946 2.11542 61.0005 2.10869C61.4584 1.58946 61.4061 0.775179 60.8887 0.317386Z" fill="#4B9220"/>
<path d="M51.6877 22.3604C51.3736 21.764 50.5677 21.5161 49.9713 21.831L47.7266 23.018C47.1082 23.3442 46.871 24.1135 47.1972 24.733C47.5193 25.3447 48.3041 25.5841 48.9138 25.2624L51.1583 24.0754C51.7766 23.7492 52.014 22.9799 51.6877 22.3604Z" fill="#4B9220"/>
<path d="M64.8528 15.4033C64.5417 14.8159 63.7289 14.5596 63.1377 14.8738C63.1377 14.8738 58.9648 17.078 58.9508 17.0853C58.6564 17.2408 58.4472 17.5234 58.3501 17.8403C58.2529 18.1573 58.268 18.5087 58.4225 18.8016C58.7407 19.4049 59.5367 19.6441 60.1378 19.3311L64.3234 17.1183C64.943 16.7921 65.1804 16.0215 64.8528 15.4033Z" fill="#4B9220"/>
<path d="M28.1994 17.7507C28.1994 17.7507 26.8469 14.1978 26.8448 14.1922C26.6059 13.5647 25.8354 13.2162 25.2058 13.4571C24.5519 13.706 24.2218 14.441 24.4706 15.0948C24.4706 15.0948 25.8252 18.6514 25.8265 18.6546C26.0716 19.2981 26.821 19.6377 27.4642 19.3897C28.0973 19.1455 28.4398 18.3839 28.1994 17.7507Z" fill="#4B9220"/>
<path d="M23.2294 4.69989C23.2294 4.69989 21.7553 0.823626 21.753 0.817659C21.5153 0.192796 20.7382 -0.15074 20.1141 0.0826002C19.473 0.322288 19.1382 1.08769 19.379 1.72157C19.379 1.72144 20.8545 5.59757 20.8568 5.60366C21.0941 6.22688 21.8708 6.57638 22.4957 6.33758C23.1222 6.09802 23.4696 5.32538 23.2294 4.69989Z" fill="#4B9220"/>
<path d="M13.3817 9.0262C13.3817 9.0262 5.7862 0.440739 5.77464 0.427663C5.32193 -0.0839581 4.49165 -0.132581 3.98206 0.318483C3.45775 0.783132 3.40938 1.58674 3.87288 2.11106C3.87276 2.11119 11.4647 10.6927 11.4798 10.7097C11.923 11.2107 12.7719 11.2618 13.2724 10.8189C13.7812 10.3686 13.8303 9.53337 13.3817 9.0262Z" fill="#4B9220"/>
<path d="M22.6363 19.4861C22.6363 19.4861 20.1176 16.6392 20.1125 16.6335C19.6612 16.1234 18.8272 16.0753 18.3199 16.5243C17.7956 16.9877 17.7473 17.7913 18.2107 18.3156C18.2107 18.3156 20.7302 21.1633 20.7346 21.1682C21.1859 21.6783 22.0192 21.7271 22.5271 21.2774C23.0502 20.814 23.0998 20.0104 22.6363 19.4861Z" fill="#4B9220"/>
<path d="M5.91215 17.2376C5.91215 17.2376 1.86323 15.1276 1.85612 15.1239C1.25703 14.8117 0.464461 15.0475 0.143523 15.6634C-0.176145 16.2771 0.0736991 17.0572 0.683074 17.376C0.683074 17.376 4.72717 19.4829 4.73783 19.4885C5.34886 19.8069 6.13444 19.5568 6.45043 18.9504C6.76971 18.3376 6.52368 17.555 5.91215 17.2376Z" fill="#4B9220"/>
<path d="M17.1698 23.1042C17.1698 23.1042 14.9214 21.9331 14.9177 21.9312C14.3196 21.6196 13.5251 21.8552 13.2051 22.4694C12.8813 23.0902 13.1238 23.8583 13.7446 24.182C13.7446 24.182 15.9959 25.3546 15.9968 25.3551C16.6119 25.6754 17.3892 25.4323 17.7081 24.8169C18.0243 24.2069 17.7769 23.4193 17.1698 23.1042Z" fill="#4B9220"/>
<path d="M9.77539 21.9629C10.4765 21.9629 11.0449 21.3945 11.0449 20.6934C11.0449 19.9922 10.4765 19.4238 9.77539 19.4238C9.07425 19.4238 8.50586 19.9922 8.50586 20.6934C8.50586 21.3945 9.07425 21.9629 9.77539 21.9629Z" fill="#4B9220"/>
<path d="M15.7422 14.8535C16.4433 14.8535 17.0117 14.2851 17.0117 13.584C17.0117 12.8828 16.4433 12.3145 15.7422 12.3145C15.041 12.3145 14.4727 12.8828 14.4727 13.584C14.4727 14.2851 15.041 14.8535 15.7422 14.8535Z" fill="#4B9220"/>
<path d="M23.8672 11.1719C24.5683 11.1719 25.1367 10.6035 25.1367 9.90234C25.1367 9.2012 24.5683 8.63281 23.8672 8.63281C23.166 8.63281 22.5977 9.2012 22.5977 9.90234C22.5977 10.6035 23.166 11.1719 23.8672 11.1719Z" fill="#4B9220"/>
<path d="M32.5 9.90234C33.2011 9.90234 33.7695 9.33396 33.7695 8.63281C33.7695 7.93167 33.2011 7.36328 32.5 7.36328C31.7989 7.36328 31.2305 7.93167 31.2305 8.63281C31.2305 9.33396 31.7989 9.90234 32.5 9.90234Z" fill="#4B9220"/>
<path d="M41.0059 11.1719C41.707 11.1719 42.2754 10.6035 42.2754 9.90234C42.2754 9.2012 41.707 8.63281 41.0059 8.63281C40.3047 8.63281 39.7363 9.2012 39.7363 9.90234C39.7363 10.6035 40.3047 11.1719 41.0059 11.1719Z" fill="#4B9220"/>
<path d="M49.1309 14.8535C49.832 14.8535 50.4004 14.2851 50.4004 13.584C50.4004 12.8828 49.832 12.3145 49.1309 12.3145C48.4297 12.3145 47.8613 12.8828 47.8613 13.584C47.8613 14.2851 48.4297 14.8535 49.1309 14.8535Z" fill="#4B9220"/>
<path d="M55.0977 21.8359C55.7988 21.8359 56.3672 21.2675 56.3672 20.5664C56.3672 19.8653 55.7988 19.2969 55.0977 19.2969C54.3965 19.2969 53.8281 19.8653 53.8281 20.5664C53.8281 21.2675 54.3965 21.8359 55.0977 21.8359Z" fill="#4B9220"/>
</svg>
